Case_no,checking_status,credit_history,purpose,credit_amount,savings_status,employment,personal_status,Age,existing_credits,job,num_dependents,class
1,<0,critical/other_existing_credit,radio/tv,1169,no_savings,>=7,male_single,67,2,skilled,1,good
2,0<=X<200,existing_paid,radio/tv,5951,<100,1<=X<4,female_div/dep/mar,22,1,skilled,1,bad
3,no_checking,critical/other_existing_credit,education,2096,<100,4<=X<7,male_single,49,1,unskilled_resident,2,good
4,<0,existing_paid,furniture/equipment,7882,<100,4<=X<7,male_single,45,1,skilled,2,good
5,<0,delayed_previously,new_car,4870,<100,1<=X<4,male_single,53,2,skilled,2,bad
6,no_checking,existing_paid,education,9055,no_savings,1<=X<4,male_single,35,1,unskilled_resident,2,good
7,no_checking,existing_paid,furniture/equipment,2835,500<=X<1000,>=7,male_single,53,1,skilled,1,good
8,0<=X<200,existing_paid,used_car,6948,<100,1<=X<4,male_single,35,1,high_qualif/self_emp/mgmt,1,good
9,no_checking,existing_paid,radio/tv,3059,>=1000,4<=X<7,male_div/sep,61,1,unskilled_resident,1,good
10,0<=X<200,critical/other_existing_credit,new_car,5234,<100,unemployed,male_mar/wid,28,2,high_qualif/self_emp/mgmt,1,bad
11,0<=X<200,existing_paid,new_car,1295,<100,<1,female_div/dep/mar,25,1,skilled,1,bad
12,<0,existing_paid,business,4308,<100,<1,female_div/dep/mar,24,1,skilled,1,bad
13,0<=X<200,existing_paid,radio/tv,1567,<100,1<=X<4,female_div/dep/mar,22,1,skilled,1,good
14,<0,critical/other_existing_credit,new_car,1199,<100,>=7,male_single,60,2,unskilled_resident,1,bad
15,<0,existing_paid,new_car,1403,<100,1<=X<4,female_div/dep/mar,28,1,skilled,1,good
16,<0,existing_paid,radio/tv,1282,100<=X<500,1<=X<4,female_div/dep/mar,32,1,unskilled_resident,1,bad
17,no_checking,critical/other_existing_credit,radio/tv,2424,no_savings,>=7,male_single,53,2,skilled,1,good
18,<0,no_credits/all_paid,business,8072,no_savings,<1,male_single,25,3,skilled,1,good
19,0<=X<200,existing_paid,used_car,12579,<100,>=7,female_div/dep/mar,44,1,high_qualif/self_emp/mgmt,1,bad
20,no_checking,existing_paid,radio/tv,3430,500<=X<1000,>=7,male_single,31,1,skilled,2,good
21,no_checking,critical/other_existing_credit,new_car,2134,<100,1<=X<4,male_single,48,3,skilled,1,good
22,<0,existing_paid,radio/tv,2647,500<=X<1000,1<=X<4,male_single,44,1,skilled,2,good
23,<0,critical/other_existing_credit,new_car,2241,<100,<1,male_single,48,2,unskilled_resident,2,good
24,0<=X<200,critical/other_existing_credit,used_car,1804,100<=X<500,<1,male_single,44,1,skilled,1,good
25,no_checking,critical/other_existing_credit,furniture/equipment,2069,no_savings,1<=X<4,male_mar/wid,26,2,skilled,1,good
26,<0,existing_paid,furniture/equipment,1374,<100,1<=X<4,male_single,6,1,unskilled_resident,1,good
27,no_checking,no_credits/all_paid,radio/tv,426,<100,>=7,male_mar/wid,39,1,unskilled_resident,1,good
28,>=200,allpaid,radio/tv,409,>=1000,1<=X<4,female_div/dep/mar,42,2,skilled,1,good
29,0<=X<200,existing_paid,radio/tv,2415,<100,1<=X<4,male_single,34,1,skilled,1,good
30,<0,delayed_previously,business,6836,<100,>=7,male_single,63,2,skilled,1,bad
31,0<=X<200,existing_paid,business,1913,>=1000,<1,male_mar/wid,36,1,skilled,1,good
32,<0,existing_paid,furniture/equipment,4020,<100,1<=X<4,male_single,27,1,skilled,1,good
33,0<=X<200,existing_paid,new_car,5866,100<=X<500,1<=X<4,male_single,30,2,skilled,1,good
34,no_checking,critical/other_existing_credit,business,1264,no_savings,>=7,male_single,57,1,unskilled_resident,1,good
35,>=200,existing_paid,furniture/equipment,1474,<100,<1,female_div/dep/mar,33,1,high_qualif/self_emp/mgmt,1,good
36,0<=X<200,critical/other_existing_credit,radio/tv,4746,<100,<1,male_single,25,2,unskilled_resident,1,bad
37,no_checking,critical/other_existing_credit,education,6110,<100,1<=X<4,male_single,31,1,skilled,1,good
38,>=200,existing_paid,radio/tv,2100,<100,1<=X<4,male_single,37,1,skilled,1,bad
39,>=200,existing_paid,domestic_appliance,1225,<100,1<=X<4,male_single,37,1,skilled,1,good
40,0<=X<200,existing_paid,radio/tv,458,<100,1<=X<4,male_single,24,1,skilled,1,good
41,no_checking,existing_paid,radio/tv,2333,500<=X<1000,>=7,male_single,30,1,high_qualif/self_emp/mgmt,1,good
42,0<=X<200,existing_paid,radio/tv,1158,500<=X<1000,1<=X<4,male_div/sep,26,1,skilled,1,good
43,0<=X<200,delayed_previously,repairs,6204,<100,1<=X<4,male_single,44,1,unskilled_resident,2,good
44,<0,critical/other_existing_credit,used_car,6187,100<=X<500,4<=X<7,male_mar/wid,24,2,skilled,1,good
45,<0,critical/other_existing_credit,used_car,6143,<100,>=7,female_div/dep/mar,58,2,unskilled_resident,1,bad
46,no_checking,critical/other_existing_credit,new_car,1393,<100,<1,female_div/dep/mar,35,2,high_qualif/self_emp/mgmt,1,good
47,no_checking,existing_paid,radio/tv,2299,500<=X<1000,>=7,male_single,39,1,skilled,1,good
48,<0,existing_paid,used_car,1352,500<=X<1000,unemployed,female_div/dep/mar,23,1,unemp/unskilled_non_res,1,good
49,no_checking,critical/other_existing_credit,new_car,7228,<100,1<=X<4,male_single,39,2,unskilled_resident,1,good
50,no_checking,existing_paid,radio/tv,2073,100<=X<500,1<=X<4,female_div/dep/mar,28,1,skilled,1,good
51,0<=X<200,delayed_previously,furniture/equipment,2333,no_savings,<1,male_single,29,1,unskilled_resident,1,good
52,0<=X<200,delayed_previously,used_car,5965,<100,>=7,male_single,30,2,high_qualif/self_emp/mgmt,1,good
53,no_checking,existing_paid,radio/tv,1262,<100,1<=X<4,male_single,25,1,skilled,1,good
54,no_checking,existing_paid,used_car,3378,no_savings,1<=X<4,male_single,1,1,skilled,1,good
55,0<=X<200,delayed_previously,new_car,2225,<100,>=7,male_single,57,2,skilled,1,bad
56,no_checking,allpaid,new_car,783,no_savings,1<=X<4,male_single,26,1,unskilled_resident,2,good
57,0<=X<200,existing_paid,radio/tv,6468,no_savings,unemployed,male_single,52,1,high_qualif/self_emp/mgmt,1,bad
58,no_checking,critical/other_existing_credit,radio/tv,9566,<100,1<=X<4,female_div/dep/mar,31,2,skilled,1,good
59,>=200,existing_paid,new_car,1961,<100,>=7,female_div/dep/mar,23,1,high_qualif/self_emp/mgmt,1,good
60,<0,critical/other_existing_credit,furniture/equipment,6229,<100,<1,female_div/dep/mar,23,2,unskilled_resident,1,bad
61,0<=X<200,existing_paid,business,1391,<100,1<=X<4,male_mar/wid,27,1,skilled,1,good
62,0<=X<200,critical/other_existing_credit,radio/tv,1537,no_savings,>=7,male_single,50,2,skilled,1,good
63,0<=X<200,no_credits/all_paid,business,1953,<100,>=7,male_single,61,1,high_qualif/self_emp/mgmt,1,bad
64,0<=X<200,no_credits/all_paid,business,14421,<100,1<=X<4,male_single,25,1,skilled,1,bad
65,no_checking,existing_paid,radio/tv,3181,<100,<1,female_div/dep/mar,26,1,skilled,1,good
66,no_checking,existing_paid,repairs,5190,no_savings,>=7,male_single,48,4,skilled,2,good
67,no_checking,existing_paid,radio/tv,2171,<100,<1,female_div/dep/mar,29,1,skilled,1,good
68,0<=X<200,existing_paid,new_car,1007,>=1000,1<=X<4,male_mar/wid,22,1,skilled,1,good
69,no_checking,existing_paid,education,1819,<100,1<=X<4,male_single,37,1,skilled,1,bad
70,no_checking,existing_paid,radio/tv,2394,no_savings,1<=X<4,female_div/dep/mar,25,1,skilled,1,good
71,no_checking,existing_paid,used_car,8133,<100,1<=X<4,female_div/dep/mar,30,1,skilled,1,good
72,no_checking,critical/other_existing_credit,radio/tv,730,no_savings,>=7,male_single,46,2,unskilled_resident,1,good
73,<0,critical/other_existing_credit,other,1164,<100,>=7,male_single,51,2,high_qualif/self_emp/mgmt,2,good
74,0<=X<200,critical/other_existing_credit,business,5954,<100,4<=X<7,female_div/dep/mar,41,2,unskilled_resident,1,good
75,<0,existing_paid,education,1977,no_savings,>=7,male_single,40,1,high_qualif/self_emp/mgmt,1,bad
76,<0,critical/other_existing_credit,used_car,1526,<100,>=7,male_single,66,2,high_qualif/self_emp/mgmt,1,good
77,<0,existing_paid,radio/tv,3965,<100,<1,male_single,34,1,skilled,1,bad
78,0<=X<200,delayed_previously,radio/tv,4771,<100,4<=X<7,male_single,51,1,skilled,1,good
79,no_checking,no_credits/all_paid,used_car,9436,no_savings,1<=X<4,male_single,39,1,unskilled_resident,2,good
80,0<=X<200,existing_paid,furniture/equipment,3832,<100,<1,male_mar/wid,22,1,skilled,1,good
81,no_checking,existing_paid,radio/tv,5943,no_savings,<1,female_div/dep/mar,44,2,skilled,1,bad
82,no_checking,existing_paid,radio/tv,1213,500<=X<1000,>=7,male_single,47,1,skilled,1,good
83,no_checking,existing_paid,business,1568,100<=X<500,1<=X<4,female_div/dep/mar,24,1,unskilled_resident,1,good
84,<0,existing_paid,other,1755,<100,>=7,female_div/dep/mar,58,1,unskilled_resident,1,good
85,<0,existing_paid,radio/tv,2315,<100,>=7,male_single,52,1,unskilled_resident,1,good
86,no_checking,critical/other_existing_credit,business,1412,<100,1<=X<4,female_div/dep/mar,29,2,high_qualif/self_emp/mgmt,1,good
87,0<=X<200,critical/other_existing_credit,furniture/equipment,1295,<100,<1,female_div/dep/mar,27,2,skilled,1,good
88,0<=X<200,existing_paid,education,12612,100<=X<500,1<=X<4,male_single,47,1,skilled,2,bad
89,<0,existing_paid,new_car,2249,100<=X<500,4<=X<7,male_single,30,1,high_qualif/self_emp/mgmt,2,good
90,<0,no_credits/all_paid,repairs,1108,<100,4<=X<7,male_single,28,2,skilled,1,bad
91,no_checking,critical/other_existing_credit,radio/tv,618,<100,>=7,male_single,56,1,skilled,1,good
92,<0,critical/other_existing_credit,used_car,1409,<100,>=7,male_single,54,1,skilled,1,good
93,no_checking,critical/other_existing_credit,radio/tv,797,no_savings,>=7,female_div/dep/mar,33,1,unskilled_resident,2,bad
94,>=200,critical/other_existing_credit,furniture/equipment,3617,no_savings,>=7,male_single,20,2,skilled,1,good
95,0<=X<200,existing_paid,new_car,1318,>=1000,>=7,male_single,54,1,skilled,1,good
96,0<=X<200,no_credits/all_paid,business,15945,<100,<1,male_single,58,1,skilled,1,bad
97,no_checking,critical/other_existing_credit,education,2012,no_savings,4<=X<7,female_div/dep/mar,61,1,skilled,1,good
98,0<=X<200,existing_paid,business,2622,100<=X<500,1<=X<4,male_single,34,1,skilled,1,good
99,0<=X<200,critical/other_existing_credit,radio/tv,2337,<100,>=7,male_single,36,1,skilled,1,good
100,0<=X<200,delayed_previously,used_car,7057,no_savings,4<=X<7,male_single,36,2,high_qualif/self_emp/mgmt,2,good
101,no_checking,existing_paid,new_car,1469,100<=X<500,>=7,male_mar/wid,41,1,unskilled_resident,1,good
102,0<=X<200,existing_paid,radio/tv,2323,<100,4<=X<7,male_single,24,1,skilled,1,good
103,no_checking,delayed_previously,radio/tv,932,<100,1<=X<4,female_div/dep/mar,24,1,skilled,1,good
104,0<=X<200,critical/other_existing_credit,furniture/equipment,1919,<100,4<=X<7,male_single,35,1,skilled,1,good
105,no_checking,existing_paid,used_car,2445,no_savings,<1,male_mar/wid,26,1,skilled,1,good
106,0<=X<200,critical/other_existing_credit,other,11938,<100,1<=X<4,male_single,39,2,high_qualif/self_emp/mgmt,2,bad
107,no_checking,allpaid,new_car,6458,<100,>=7,male_single,39,2,high_qualif/self_emp/mgmt,2,bad
108,0<=X<200,existing_paid,new_car,6078,<100,4<=X<7,male_single,32,1,skilled,1,good
109,<0,existing_paid,furniture/equipment,7721,no_savings,<1,female_div/dep/mar,30,1,skilled,1,good
110,0<=X<200,existing_paid,business,1410,500<=X<1000,>=7,male_mar/wid,35,1,skilled,1,good
111,0<=X<200,delayed_previously,business,1449,100<=X<500,>=7,male_div/sep,31,2,skilled,2,good
112,>=200,existing_paid,education,392,<100,<1,female_div/dep/mar,23,1,skilled,1,good
113,0<=X<200,existing_paid,new_car,6260,<100,4<=X<7,male_single,28,1,unskilled_resident,1,good
114,no_checking,critical/other_existing_credit,new_car,7855,<100,1<=X<4,female_div/dep/mar,25,2,skilled,1,bad
115,<0,existing_paid,radio/tv,1680,500<=X<1000,>=7,male_mar/wid,35,1,skilled,1,good
116,no_checking,critical/other_existing_credit,radio/tv,3578,no_savings,>=7,male_single,47,1,skilled,1,good
117,<0,existing_paid,radio/tv,7174,no_savings,4<=X<7,female_div/dep/mar,30,1,high_qualif/self_emp/mgmt,1,bad
118,<0,critical/other_existing_credit,furniture/equipment,2132,no_savings,<1,female_div/dep/mar,27,2,skilled,1,good
119,<0,critical/other_existing_credit,furniture/equipment,4281,500<=X<1000,1<=X<4,female_div/dep/mar,23,2,skilled,1,bad
120,0<=X<200,critical/other_existing_credit,new_car,2366,500<=X<1000,4<=X<7,male_div/sep,36,1,high_qualif/self_emp/mgmt,1,good
121,<0,existing_paid,radio/tv,1835,<100,1<=X<4,female_div/dep/mar,25,2,skilled,1,bad
122,no_checking,critical/other_existing_credit,used_car,3868,<100,>=7,female_div/dep/mar,41,2,high_qualif/self_emp/mgmt,1,good
123,no_checking,existing_paid,furniture/equipment,1768,<100,1<=X<4,male_single,24,1,unskilled_resident,1,good
124,>=200,critical/other_existing_credit,new_car,781,<100,>=7,male_single,63,2,skilled,1,good
125,0<=X<200,existing_paid,furniture/equipment,1924,no_savings,<1,female_div/dep/mar,27,1,skilled,1,bad
126,<0,critical/other_existing_credit,new_car,2121,<100,1<=X<4,male_single,30,2,skilled,1,good
127,<0,existing_paid,radio/tv,701,<100,1<=X<4,male_mar/wid,40,1,unskilled_resident,1,good
128,0<=X<200,existing_paid,repairs,639,<100,1<=X<4,male_single,30,1,skilled,1,bad
129,0<=X<200,critical/other_existing_credit,used_car,1860,<100,unemployed,male_single,34,2,high_qualif/self_emp/mgmt,1,good
130,<0,critical/other_existing_credit,new_car,3499,<100,1<=X<4,female_div/dep/mar,29,2,skilled,1,bad
131,0<=X<200,existing_paid,new_car,8487,no_savings,4<=X<7,female_div/dep/mar,24,1,skilled,1,good
132,<0,delayed_previously,education,6887,<100,1<=X<4,male_single,29,1,skilled,1,bad
133,no_checking,existing_paid,furniture/equipment,2708,<100,<1,male_single,27,2,unskilled_resident,1,good
134,no_checking,existing_paid,furniture/equipment,1984,<100,1<=X<4,male_single,47,2,skilled,1,good
135,no_checking,existing_paid,radio/tv,10144,100<=X<500,4<=X<7,female_div/dep/mar,21,1,skilled,1,good
136,no_checking,critical/other_existing_credit,radio/tv,1240,no_savings,>=7,female_div/dep/mar,38,2,skilled,1,good
137,no_checking,delayed_previously,used_car,8613,>=1000,1<=X<4,male_single,27,2,skilled,1,good
138,0<=X<200,existing_paid,radio/tv,766,500<=X<1000,1<=X<4,male_single,66,1,unskilled_resident,1,bad
139,0<=X<200,critical/other_existing_credit,radio/tv,2728,no_savings,4<=X<7,male_single,35,3,skilled,1,good
140,>=200,existing_paid,radio/tv,1881,<100,1<=X<4,female_div/dep/mar,44,1,unskilled_resident,1,good
141,>=200,existing_paid,new_car,709,>=1000,<1,male_mar/wid,27,1,unemp/unskilled_non_res,1,good
142,0<=X<200,existing_paid,radio/tv,4795,<100,<1,female_div/dep/mar,30,1,high_qualif/self_emp/mgmt,1,good
143,<0,existing_paid,radio/tv,3416,<100,1<=X<4,male_single,27,1,high_qualif/self_emp/mgmt,1,good
144,<0,existing_paid,furniture/equipment,2462,<100,1<=X<4,male_single,22,1,skilled,1,bad
145,no_checking,critical/other_existing_credit,furniture/equipment,2288,<100,<1,female_div/dep/mar,23,1,skilled,1,good
146,0<=X<200,allpaid,business,3566,100<=X<500,4<=X<7,male_single,30,1,skilled,1,good
147,<0,critical/other_existing_credit,new_car,860,<100,>=7,female_div/dep/mar,39,2,skilled,1,good
148,no_checking,critical/other_existing_credit,new_car,682,100<=X<500,4<=X<7,female_div/dep/mar,51,2,skilled,1,good
149,<0,critical/other_existing_credit,furniture/equipment,5371,<100,1<=X<4,male_single,28,2,skilled,1,good
150,no_checking,critical/other_existing_credit,radio/tv,1582,>=1000,>=7,male_single,46,2,skilled,1,good
151,no_checking,existing_paid,radio/tv,1346,100<=X<500,>=7,male_single,42,1,skilled,2,good
152,no_checking,existing_paid,radio/tv,1924,<100,1<=X<4,male_single,38,1,skilled,1,good
153,>=200,existing_paid,radio/tv,5848,<100,1<=X<4,male_single,24,1,skilled,1,good
154,0<=X<200,critical/other_existing_credit,used_car,7758,>=1000,>=7,female_div/dep/mar,29,1,skilled,1,good
155,0<=X<200,delayed_previously,business,6967,100<=X<500,4<=X<7,male_single,36,1,high_qualif/self_emp/mgmt,1,good
156,<0,existing_paid,furniture/equipment,1282,<100,1<=X<4,female_div/dep/mar,20,1,skilled,1,bad
157,<0,critical/other_existing_credit,repairs,1288,100<=X<500,>=7,male_single,48,2,skilled,2,good
158,<0,allpaid,retraining,339,<100,>=7,male_mar/wid,45,1,unskilled_resident,1,good
159,0<=X<200,existing_paid,new_car,3512,100<=X<500,4<=X<7,male_single,38,2,skilled,1,good
160,no_checking,critical/other_existing_credit,radio/tv,1898,no_savings,1<=X<4,male_single,34,2,unskilled_resident,2,good
161,no_checking,critical/other_existing_credit,radio/tv,2872,100<=X<500,>=7,male_single,36,1,skilled,2,good
162,no_checking,critical/other_existing_credit,new_car,1055,<100,<1,female_div/dep/mar,30,2,skilled,1,good
163,no_checking,existing_paid,domestic_appliance,1262,500<=X<1000,4<=X<7,male_single,36,2,skilled,1,good
164,0<=X<200,existing_paid,new_car,7308,<100,unemployed,male_single,70,1,high_qualif/self_emp/mgmt,1,good
165,no_checking,existing_paid,new_car,909,500<=X<1000,>=7,male_single,36,1,skilled,1,good
166,no_checking,existing_paid,furniture/equipment,2978,500<=X<1000,1<=X<4,male_single,32,1,skilled,1,good
167,<0,existing_paid,furniture/equipment,1131,<100,unemployed,female_div/dep/mar,33,1,skilled,1,bad
168,0<=X<200,existing_paid,furniture/equipment,1577,>=1000,<1,female_div/dep/mar,20,1,skilled,1,good
169,no_checking,existing_paid,furniture/equipment,3972,<100,4<=X<7,female_div/dep/mar,25,1,skilled,1,good
170,0<=X<200,critical/other_existing_credit,business,1935,<100,>=7,male_div/sep,31,2,skilled,1,bad
171,<0,no_credits/all_paid,new_car,950,<100,>=7,male_single,33,2,skilled,2,bad
172,no_checking,existing_paid,furniture/equipment,763,<100,1<=X<4,female_div/dep/mar,26,1,skilled,1,good
173,0<=X<200,delayed_previously,furniture/equipment,2064,<100,unemployed,female_div/dep/mar,34,1,high_qualif/self_emp/mgmt,1,bad
174,0<=X<200,existing_paid,radio/tv,1414,<100,1<=X<4,male_single,33,1,skilled,1,good
175,<0,delayed_previously,education,3414,<100,<1,male_single,26,2,skilled,1,bad
176,no_checking,allpaid,used_car,7485,no_savings,unemployed,female_div/dep/mar,53,1,high_qualif/self_emp/mgmt,1,bad
177,<0,existing_paid,furniture/equipment,2577,<100,1<=X<4,male_div/sep,42,1,skilled,1,good
178,<0,critical/other_existing_credit,radio/tv,338,500<=X<1000,>=7,male_single,52,2,skilled,1,good
179,no_checking,existing_paid,radio/tv,1963,<100,4<=X<7,male_single,31,2,high_qualif/self_emp/mgmt,2,good
180,<0,critical/other_existing_credit,new_car,571,<100,>=7,male_single,65,2,skilled,1,good
181,no_checking,delayed_previously,business,9572,<100,<1,male_div/sep,28,2,skilled,1,bad
182,0<=X<200,delayed_previously,business,4455,<100,1<=X<4,male_div/sep,30,2,high_qualif/self_emp/mgmt,1,bad
183,<0,allpaid,new_car,1647,no_savings,1<=X<4,male_single,40,2,unskilled_resident,2,bad
184,no_checking,critical/other_existing_credit,furniture/equipment,3777,>=1000,1<=X<4,male_single,50,1,skilled,1,good
185,0<=X<200,critical/other_existing_credit,new_car,884,<100,>=7,male_single,36,1,skilled,2,bad
186,no_checking,critical/other_existing_credit,radio/tv,1360,<100,1<=X<4,male_single,31,2,skilled,1,good
187,0<=X<200,allpaid,used_car,5129,<100,>=7,female_div/dep/mar,74,1,high_qualif/self_emp/mgmt,2,bad
188,0<=X<200,critical/other_existing_credit,new_car,1175,<100,unemployed,male_single,68,3,unemp/unskilled_non_res,1,good
189,<0,existing_paid,radio/tv,674,100<=X<500,4<=X<7,male_mar/wid,20,1,skilled,1,bad
190,0<=X<200,no_credits/all_paid,furniture/equipment,3244,<100,1<=X<4,female_div/dep/mar,33,2,skilled,1,good
191,no_checking,existing_paid,business,4591,>=1000,1<=X<4,male_single,54,3,high_qualif/self_emp/mgmt,1,bad
192,0<=X<200,no_credits/all_paid,business,3844,100<=X<500,4<=X<7,male_single,34,1,unskilled_resident,2,bad
193,0<=X<200,existing_paid,business,3915,<100,1<=X<4,male_single,36,1,skilled,2,bad
194,no_checking,existing_paid,radio/tv,2108,<100,4<=X<7,male_mar/wid,29,1,skilled,1,good
195,0<=X<200,existing_paid,radio/tv,3031,100<=X<500,1<=X<4,male_single,21,1,skilled,1,bad
196,0<=X<200,critical/other_existing_credit,education,1501,<100,>=7,female_div/dep/mar,34,2,high_qualif/self_emp/mgmt,1,bad
197,no_checking,critical/other_existing_credit,radio/tv,1382,<100,1<=X<4,female_div/dep/mar,28,2,skilled,1,good
198,0<=X<200,existing_paid,furniture/equipment,951,100<=X<500,<1,female_div/dep/mar,27,4,skilled,1,bad
199,0<=X<200,existing_paid,used_car,2760,no_savings,>=7,male_single,36,1,skilled,1,good
200,0<=X<200,delayed_previously,furniture/equipment,4297,<100,>=7,male_div/sep,40,1,high_qualif/self_emp/mgmt,1,bad
201,no_checking,critical/other_existing_credit,education,936,500<=X<1000,>=7,male_single,52,2,skilled,1,good
202,<0,existing_paid,new_car,1168,<100,1<=X<4,male_mar/wid,27,1,unskilled_resident,1,good
203,no_checking,delayed_previously,business,5117,<100,4<=X<7,male_single,26,2,skilled,1,good
204,<0,existing_paid,retraining,902,<100,4<=X<7,male_mar/wid,21,1,skilled,1,bad
205,no_checking,critical/other_existing_credit,new_car,1495,<100,>=7,male_single,38,2,unskilled_resident,2,good
206,<0,critical/other_existing_credit,used_car,10623,<100,>=7,male_single,38,3,high_qualif/self_emp/mgmt,2,good
207,no_checking,critical/other_existing_credit,furniture/equipment,1935,<100,>=7,male_single,43,3,skilled,1,good
208,0<=X<200,critical/other_existing_credit,domestic_appliance,1424,<100,4<=X<7,male_single,26,1,skilled,1,good
209,<0,existing_paid,business,6568,<100,1<=X<4,male_mar/wid,21,1,unskilled_resident,1,good
210,no_checking,existing_paid,used_car,1413,>=1000,4<=X<7,male_single,55,1,skilled,1,good
211,no_checking,critical/other_existing_credit,radio/tv,3074,no_savings,1<=X<4,male_single,33,2,skilled,2,good
212,no_checking,existing_paid,radio/tv,3835,no_savings,>=7,female_div/dep/mar,45,1,unskilled_resident,1,good
213,<0,no_credits/all_paid,business,5293,<100,unemployed,male_single,50,2,skilled,1,bad
214,>=200,delayed_previously,business,1908,<100,>=7,male_single,66,1,high_qualif/self_emp/mgmt,1,bad
215,no_checking,critical/other_existing_credit,radio/tv,3342,no_savings,>=7,male_single,51,1,skilled,1,good
216,0<=X<200,critical/other_existing_credit,retraining,932,no_savings,4<=X<7,female_div/dep/mar,39,2,unskilled_resident,1,good
217,<0,no_credits/all_paid,business,3104,<100,4<=X<7,male_single,31,1,skilled,1,good
218,>=200,existing_paid,radio/tv,3913,<100,1<=X<4,male_single,23,1,skilled,1,good
219,<0,existing_paid,furniture/equipment,3021,<100,1<=X<4,male_div/sep,24,1,unskilled_resident,1,good
220,no_checking,existing_paid,new_car,1364,<100,1<=X<4,female_div/dep/mar,64,1,skilled,1,good
221,0<=X<200,existing_paid,radio/tv,625,<100,<1,male_mar/wid,26,1,unskilled_resident,1,good
222,<0,existing_paid,education,1200,no_savings,1<=X<4,female_div/dep/mar,23,1,skilled,1,good
223,no_checking,existing_paid,radio/tv,707,<100,1<=X<4,male_single,30,2,skilled,1,good
224,no_checking,delayed_previously,business,2978,no_savings,1<=X<4,male_single,32,2,skilled,2,good
225,no_checking,existing_paid,used_car,4657,<100,1<=X<4,male_single,30,1,skilled,1,good
226,no_checking,no_credits/all_paid,repairs,2613,<100,1<=X<4,male_single,27,2,skilled,1,good
227,0<=X<200,existing_paid,radio/tv,10961,>=1000,4<=X<7,male_single,27,2,skilled,1,bad
228,<0,existing_paid,furniture/equipment,7865,<100,>=7,male_single,53,1,high_qualif/self_emp/mgmt,1,bad
229,no_checking,existing_paid,radio/tv,1478,<100,4<=X<7,male_single,22,1,skilled,1,bad
230,<0,existing_paid,furniture/equipment,3149,<100,<1,male_single,22,1,skilled,1,good
231,>=200,existing_paid,radio/tv,4210,<100,1<=X<4,male_single,26,1,skilled,1,bad
232,no_checking,existing_paid,new_car,2507,500<=X<1000,>=7,male_single,51,1,unskilled_resident,1,good
233,no_checking,existing_paid,radio/tv,2141,100<=X<500,4<=X<7,male_single,35,1,skilled,1,good
234,0<=X<200,existing_paid,radio/tv,866,<100,1<=X<4,male_mar/wid,25,1,unskilled_resident,1,good
235,no_checking,critical/other_existing_credit,radio/tv,1544,<100,4<=X<7,male_single,42,3,unskilled_resident,2,good
236,<0,existing_paid,radio/tv,1823,<100,unemployed,male_single,30,1,high_qualif/self_emp/mgmt,2,bad
237,0<=X<200,existing_paid,new_car,14555,no_savings,unemployed,male_single,23,1,unemp/unskilled_non_res,1,bad
238,0<=X<200,existing_paid,business,2767,100<=X<500,>=7,male_div/sep,61,2,unskilled_resident,1,bad
239,no_checking,critical/other_existing_credit,radio/tv,1291,<100,1<=X<4,female_div/dep/mar,35,2,skilled,1,good
240,<0,existing_paid,radio/tv,2522,<100,>=7,male_single,39,1,skilled,2,good
241,<0,existing_paid,new_car,915,no_savings,>=7,female_div/dep/mar,29,1,skilled,1,bad
242,no_checking,existing_paid,radio/tv,1595,<100,4<=X<7,male_single,51,1,skilled,2,good
243,<0,no_credits/all_paid,used_car,4605,<100,>=7,male_single,24,2,skilled,2,bad
244,no_checking,critical/other_existing_credit,business,1185,<100,1<=X<4,female_div/dep/mar,27,2,skilled,1,good
245,no_checking,allpaid,retraining,3447,500<=X<1000,1<=X<4,female_div/dep/mar,35,1,unskilled_resident,2,good
246,no_checking,existing_paid,business,1258,<100,4<=X<7,male_single,25,1,skilled,1,good
247,no_checking,critical/other_existing_credit,radio/tv,717,<100,>=7,male_single,52,3,skilled,1,good
248,no_checking,no_credits/all_paid,new_car,1204,100<=X<500,1<=X<4,male_single,35,1,skilled,1,good
249,>=200,existing_paid,furniture/equipment,1925,<100,1<=X<4,male_single,26,1,skilled,1,good
250,no_checking,existing_paid,radio/tv,433,<100,unemployed,female_div/dep/mar,22,1,skilled,1,bad
251,<0,critical/other_existing_credit,new_car,666,>=1000,4<=X<7,female_div/dep/mar,39,2,unskilled_resident,1,good
252,>=200,existing_paid,furniture/equipment,2251,<100,1<=X<4,female_div/dep/mar,46,1,unskilled_resident,1,good
253,0<=X<200,existing_paid,new_car,2150,<100,1<=X<4,female_div/dep/mar,24,1,skilled,1,bad
254,no_checking,delayed_previously,furniture/equipment,4151,100<=X<500,1<=X<4,male_single,35,2,skilled,1,good
255,0<=X<200,existing_paid,furniture/equipment,2030,no_savings,4<=X<7,male_single,24,1,skilled,1,good
256,0<=X<200,delayed_previously,radio/tv,7418,no_savings,1<=X<4,male_single,27,1,unskilled_resident,1,good
257,no_checking,critical/other_existing_credit,radio/tv,2684,<100,1<=X<4,male_single,35,2,unskilled_resident,1,good
258,<0,allpaid,radio/tv,2149,<100,1<=X<4,male_div/sep,29,1,skilled,1,bad
259,no_checking,existing_paid,used_car,3812,100<=X<500,<1,female_div/dep/mar,23,1,skilled,1,good
260,no_checking,critical/other_existing_credit,radio/tv,1154,100<=X<500,unemployed,female_div/dep/mar,57,3,unskilled_resident,1,good
261,<0,existing_paid,furniture/equipment,1657,<100,1<=X<4,male_single,27,1,skilled,1,good
262,<0,existing_paid,radio/tv,1603,<100,>=7,female_div/dep/mar,55,1,skilled,1,good
263,<0,critical/other_existing_credit,new_car,5302,<100,>=7,male_single,36,3,high_qualif/self_emp/mgmt,1,good
264,no_checking,critical/other_existing_credit,education,2748,<100,>=7,female_div/dep/mar,57,3,unskilled_resident,1,good
265,no_checking,critical/other_existing_credit,new_car,1231,<100,>=7,male_single,32,2,unskilled_resident,2,good
266,0<=X<200,existing_paid,radio/tv,802,<100,>=7,male_single,37,1,skilled,2,bad
267,no_checking,critical/other_existing_credit,business,6304,no_savings,>=7,male_single,36,2,skilled,1,good
268,no_checking,existing_paid,radio/tv,1533,<100,<1,female_div/dep/mar,38,1,skilled,1,good
269,<0,existing_paid,new_car,8978,<100,>=7,male_div/sep,45,1,high_qualif/self_emp/mgmt,1,bad
270,no_checking,existing_paid,radio/tv,999,no_savings,>=7,male_single,25,2,skilled,1,good
271,no_checking,existing_paid,new_car,2662,no_savings,4<=X<7,male_single,32,1,skilled,1,good
272,no_checking,critical/other_existing_credit,furniture/equipment,1402,500<=X<1000,4<=X<7,female_div/dep/mar,37,1,skilled,1,good
273,0<=X<200,allpaid,new_car,12169,no_savings,unemployed,male_single,36,1,high_qualif/self_emp/mgmt,1,good
274,0<=X<200,existing_paid,radio/tv,3060,<100,4<=X<7,male_single,28,2,skilled,1,bad
275,<0,existing_paid,repairs,11998,<100,<1,male_div/sep,34,1,unskilled_resident,1,bad
276,no_checking,existing_paid,radio/tv,2697,<100,1<=X<4,male_single,32,1,skilled,2,good
277,no_checking,critical/other_existing_credit,radio/tv,2404,<100,1<=X<4,female_div/dep/mar,26,2,skilled,1,good
278,<0,existing_paid,furniture/equipment,1262,no_savings,>=7,male_div/sep,49,1,unskilled_resident,1,good
279,no_checking,existing_paid,furniture/equipment,4611,<100,<1,female_div/dep/mar,32,1,skilled,1,bad
280,no_checking,existing_paid,radio/tv,1901,100<=X<500,1<=X<4,male_single,29,1,high_qualif/self_emp/mgmt,1,good
281,no_checking,critical/other_existing_credit,used_car,3368,>=1000,>=7,male_single,23,2,skilled,1,good
282,no_checking,existing_paid,furniture/equipment,1574,<100,1<=X<4,male_single,50,1,skilled,1,good
283,>=200,allpaid,radio/tv,1445,no_savings,4<=X<7,male_single,49,1,unskilled_resident,1,good
284,no_checking,critical/other_existing_credit,furniture/equipment,1520,no_savings,>=7,male_single,63,1,skilled,1,good
285,0<=X<200,critical/other_existing_credit,new_car,3878,100<=X<500,<1,male_div/sep,37,1,skilled,1,good
286,<0,existing_paid,new_car,10722,<100,<1,female_div/dep/mar,35,1,unskilled_resident,1,good
287,<0,existing_paid,used_car,4788,<100,4<=X<7,male_single,26,1,skilled,2,good
288,0<=X<200,delayed_previously,other,7582,100<=X<500,unemployed,male_single,31,1,high_qualif/self_emp/mgmt,1,good
289,0<=X<200,existing_paid,radio/tv,1092,<100,1<=X<4,female_div/dep/mar,49,2,skilled,1,good
290,<0,delayed_previously,radio/tv,1024,<100,<1,male_mar/wid,48,1,skilled,1,bad
291,no_checking,existing_paid,business,1076,<100,1<=X<4,male_mar/wid,26,1,skilled,1,good
292,0<=X<200,existing_paid,used_car,9398,<100,<1,male_mar/wid,28,1,high_qualif/self_emp/mgmt,1,bad
293,<0,critical/other_existing_credit,used_car,6419,<100,>=7,female_div/dep/mar,44,2,high_qualif/self_emp/mgmt,2,good
294,>=200,critical/other_existing_credit,used_car,4796,<100,>=7,male_single,56,1,skilled,1,good
295,no_checking,critical/other_existing_credit,business,7629,no_savings,>=7,male_div/sep,46,2,high_qualif/self_emp/mgmt,2,good
296,0<=X<200,existing_paid,furniture/equipment,9960,<100,<1,female_div/dep/mar,26,1,skilled,1,bad
297,no_checking,existing_paid,used_car,4675,no_savings,<1,female_div/dep/mar,20,1,skilled,1,good
298,no_checking,existing_paid,new_car,1287,no_savings,>=7,male_single,45,1,unskilled_resident,1,good
299,no_checking,existing_paid,furniture/equipment,2515,<100,1<=X<4,male_single,43,1,skilled,1,good
300,0<=X<200,critical/other_existing_credit,furniture/equipment,2745,>=1000,4<=X<7,male_single,32,2,skilled,1,good
301,no_checking,existing_paid,new_car,672,<100,unemployed,female_div/dep/mar,54,1,unemp/unskilled_non_res,1,good
302,0<=X<200,no_credits/all_paid,radio/tv,3804,<100,1<=X<4,female_div/dep/mar,42,1,skilled,1,bad
303,>=200,critical/other_existing_credit,new_car,1344,no_savings,4<=X<7,male_single,37,2,unskilled_resident,2,bad
304,<0,critical/other_existing_credit,new_car,1038,<100,4<=X<7,male_single,49,2,skilled,1,good
305,no_checking,critical/other_existing_credit,new_car,10127,500<=X<1000,1<=X<4,male_single,44,1,skilled,1,bad
306,no_checking,existing_paid,furniture/equipment,1543,>=1000,1<=X<4,male_div/sep,33,1,skilled,1,good
307,no_checking,existing_paid,used_car,4811,no_savings,4<=X<7,female_div/dep/mar,24,1,unskilled_resident,1,good
308,<0,existing_paid,radio/tv,727,100<=X<500,<1,male_mar/wid,33,1,unskilled_resident,1,bad
309,0<=X<200,existing_paid,furniture/equipment,1237,<100,1<=X<4,female_div/dep/mar,24,1,skilled,1,bad
310,0<=X<200,existing_paid,new_car,276,<100,1<=X<4,male_mar/wid,22,1,unskilled_resident,1,good
311,0<=X<200,existing_paid,other,5381,no_savings,unemployed,male_single,40,1,unemp/unskilled_non_res,1,good
312,no_checking,existing_paid,furniture/equipment,5511,100<=X<500,1<=X<4,male_single,25,1,skilled,1,good
313,>=200,existing_paid,furniture/equipment,3749,<100,<1,female_div/dep/mar,26,1,skilled,1,good
314,0<=X<200,existing_paid,new_car,685,<100,4<=X<7,male_mar/wid,25,1,unskilled_resident,1,bad
315,>=200,existing_paid,new_car,1494,no_savings,<1,male_single,29,1,unskilled_resident,2,good
316,<0,allpaid,furniture/equipment,2746,<100,>=7,male_single,31,1,skilled,1,bad
317,<0,existing_paid,furniture/equipment,708,<100,1<=X<4,male_single,38,1,unskilled_resident,2,good
318,0<=X<200,existing_paid,furniture/equipment,4351,no_savings,1<=X<4,female_div/dep/mar,48,1,unskilled_resident,1,good
319,no_checking,critical/other_existing_credit,education,701,<100,1<=X<4,male_single,32,2,skilled,1,good
320,<0,delayed_previously,furniture/equipment,3643,<100,>=7,female_div/dep/mar,27,2,unskilled_resident,1,good
321,0<=X<200,critical/other_existing_credit,new_car,4249,<100,unemployed,male_mar/wid,28,2,high_qualif/self_emp/mgmt,1,bad
322,<0,existing_paid,radio/tv,1938,<100,<1,male_div/sep,32,1,skilled,1,bad
323,<0,existing_paid,used_car,2910,<100,4<=X<7,male_single,34,1,high_qualif/self_emp/mgmt,1,good
324,<0,existing_paid,furniture/equipment,2659,>=1000,1<=X<4,male_single,28,1,skilled,1,good
325,no_checking,critical/other_existing_credit,new_car,1028,<100,1<=X<4,female_div/dep/mar,36,2,skilled,1,good
326,<0,critical/other_existing_credit,new_car,3398,<100,4<=X<7,male_single,39,2,unskilled_resident,1,good
327,no_checking,critical/other_existing_credit,furniture/equipment,5801,no_savings,>=7,male_single,49,1,skilled,1,good
328,no_checking,existing_paid,new_car,1525,>=1000,4<=X<7,female_div/dep/mar,34,1,skilled,2,good
329,>=200,existing_paid,radio/tv,4473,<100,>=7,male_single,31,1,skilled,1,good
330,0<=X<200,existing_paid,radio/tv,1068,<100,>=7,male_single,28,1,skilled,2,good
331,<0,critical/other_existing_credit,used_car,6615,<100,unemployed,male_single,75,2,high_qualif/self_emp/mgmt,1,good
332,no_checking,critical/other_existing_credit,education,1864,100<=X<500,1<=X<4,female_div/dep/mar,30,2,skilled,1,bad
333,0<=X<200,existing_paid,new_car,7408,100<=X<500,<1,female_div/dep/mar,24,1,high_qualif/self_emp/mgmt,1,bad
334,no_checking,critical/other_existing_credit,used_car,11590,100<=X<500,1<=X<4,female_div/dep/mar,24,2,unskilled_resident,1,bad
335,<0,no_credits/all_paid,furniture/equipment,4110,<100,>=7,male_single,23,2,skilled,2,bad
336,<0,critical/other_existing_credit,furniture/equipment,3384,<100,1<=X<4,male_div/sep,44,1,high_qualif/self_emp/mgmt,1,bad
337,0<=X<200,existing_paid,radio/tv,2101,<100,<1,female_div/dep/mar,23,1,unskilled_resident,1,good
338,<0,existing_paid,domestic_appliance,1275,no_savings,1<=X<4,female_div/dep/mar,24,1,skilled,1,bad
339,<0,existing_paid,furniture/equipment,4169,<100,1<=X<4,male_single,28,1,skilled,1,good
340,0<=X<200,existing_paid,furniture/equipment,1521,<100,1<=X<4,male_div/sep,31,1,unskilled_resident,1,good
341,0<=X<200,critical/other_existing_credit,education,5743,<100,<1,female_div/dep/mar,24,2,skilled,1,good
342,<0,existing_paid,furniture/equipment,3599,<100,4<=X<7,female_div/dep/mar,26,1,unskilled_resident,1,good
343,0<=X<200,existing_paid,radio/tv,3213,500<=X<1000,<1,male_mar/wid,25,1,skilled,1,good
344,0<=X<200,existing_paid,business,4439,<100,>=7,male_single,33,1,high_qualif/self_emp/mgmt,1,good
345,>=200,existing_paid,new_car,3949,<100,<1,male_single,37,1,unskilled_resident,2,good
346,no_checking,critical/other_existing_credit,radio/tv,1459,<100,1<=X<4,female_div/dep/mar,43,1,unskilled_resident,1,good
347,0<=X<200,critical/other_existing_credit,radio/tv,882,<100,<1,male_single,23,2,skilled,1,good
348,0<=X<200,existing_paid,radio/tv,3758,500<=X<1000,unemployed,female_div/dep/mar,23,1,unemp/unskilled_non_res,1,good
349,no_checking,delayed_previously,business,1743,100<=X<500,1<=X<4,male_single,34,2,unskilled_resident,1,good
350,0<=X<200,critical/other_existing_credit,education,1136,>=1000,>=7,male_single,32,2,skilled,2,bad
351,no_checking,existing_paid,domestic_appliance,1236,<100,<1,female_div/dep/mar,23,1,skilled,1,good
352,0<=X<200,existing_paid,furniture/equipment,959,<100,1<=X<4,female_div/dep/mar,29,1,skilled,1,bad
353,no_checking,critical/other_existing_credit,used_car,3229,no_savings,unemployed,male_single,38,1,high_qualif/self_emp/mgmt,1,good
354,<0,no_credits/all_paid,radio/tv,6199,<100,1<=X<4,male_single,28,2,skilled,1,bad
355,no_checking,existing_paid,education,727,500<=X<1000,>=7,male_single,46,1,skilled,1,good
356,0<=X<200,existing_paid,new_car,1246,<100,<1,male_single,23,1,unskilled_resident,1,bad
357,no_checking,critical/other_existing_credit,radio/tv,2331,no_savings,>=7,male_single,49,1,skilled,1,good
358,no_checking,delayed_previously,radio/tv,4463,<100,1<=X<4,male_single,26,2,high_qualif/self_emp/mgmt,1,bad
359,no_checking,existing_paid,radio/tv,776,<100,1<=X<4,male_mar/wid,28,1,skilled,1,good
360,<0,existing_paid,furniture/equipment,2406,<100,4<=X<7,female_div/dep/mar,23,1,skilled,1,bad
361,0<=X<200,existing_paid,education,1239,no_savings,1<=X<4,male_single,61,1,skilled,1,good
362,>=200,existing_paid,radio/tv,3399,no_savings,>=7,male_single,37,1,high_qualif/self_emp/mgmt,1,good
363,>=200,delayed_previously,new_car,2247,<100,1<=X<4,female_div/dep/mar,36,2,skilled,1,good
364,no_checking,existing_paid,furniture/equipment,1766,<100,1<=X<4,male_mar/wid,21,1,skilled,1,good
365,<0,existing_paid,furniture/equipment,2473,<100,unemployed,male_single,25,1,unemp/unskilled_non_res,1,bad
366,no_checking,existing_paid,business,1542,<100,4<=X<7,male_single,36,1,skilled,1,good
367,no_checking,critical/other_existing_credit,used_car,3850,<100,4<=X<7,male_single,27,2,skilled,1,good
368,<0,existing_paid,furniture/equipment,3650,<100,<1,female_div/dep/mar,22,1,skilled,1,good
369,<0,existing_paid,furniture/equipment,3446,<100,>=7,male_single,42,1,skilled,2,bad
370,0<=X<200,existing_paid,furniture/equipment,3001,<100,4<=X<7,female_div/dep/mar,40,1,skilled,1,good
371,no_checking,existing_paid,new_car,3079,no_savings,1<=X<4,male_single,36,1,skilled,1,good
372,no_checking,critical/other_existing_credit,radio/tv,6070,<100,>=7,male_single,33,2,skilled,1,good
373,no_checking,critical/other_existing_credit,furniture/equipment,2146,<100,<1,female_div/dep/mar,23,2,skilled,1,good
374,no_checking,critical/other_existing_credit,new_car,13756,no_savings,>=7,male_single,63,1,high_qualif/self_emp/mgmt,1,good
375,0<=X<200,allpaid,other,14782,100<=X<500,>=7,female_div/dep/mar,60,2,high_qualif/self_emp/mgmt,1,bad
376,<0,allpaid,business,7685,<100,4<=X<7,female_div/dep/mar,37,1,skilled,1,bad
377,no_checking,delayed_previously,radio/tv,2320,<100,unemployed,male_mar/wid,34,2,skilled,1,good
378,no_checking,delayed_previously,radio/tv,846,no_savings,>=7,male_single,36,1,skilled,1,good
379,0<=X<200,existing_paid,new_car,14318,<100,>=7,male_single,57,1,high_qualif/self_emp/mgmt,1,bad
380,no_checking,critical/other_existing_credit,new_car,362,100<=X<500,1<=X<4,female_div/dep/mar,52,2,unskilled_resident,1,good
381,<0,existing_paid,furniture/equipment,2212,no_savings,4<=X<7,male_single,39,1,skilled,1,good
382,0<=X<200,existing_paid,used_car,12976,<100,unemployed,female_div/dep/mar,38,1,high_qualif/self_emp/mgmt,1,bad
383,no_checking,existing_paid,new_car,1283,no_savings,4<=X<7,female_div/dep/mar,25,1,skilled,1,good
384,>=200,existing_paid,new_car,1330,<100,<1,male_single,26,1,skilled,1,good
385,no_checking,delayed_previously,business,4272,100<=X<500,1<=X<4,male_single,26,2,unskilled_resident,1,good
386,no_checking,critical/other_existing_credit,radio/tv,2238,<100,1<=X<4,female_div/dep/mar,25,2,skilled,1,good
387,no_checking,existing_paid,radio/tv,1126,no_savings,<1,female_div/dep/mar,21,1,skilled,1,good
388,0<=X<200,critical/other_existing_credit,furniture/equipment,7374,<100,unemployed,male_single,40,2,high_qualif/self_emp/mgmt,1,good
389,0<=X<200,critical/other_existing_credit,business,2326,500<=X<1000,1<=X<4,male_single,27,1,skilled,1,good
390,no_checking,existing_paid,business,1449,<100,4<=X<7,female_div/dep/mar,27,2,skilled,1,good
391,no_checking,existing_paid,new_car,1820,<100,1<=X<4,male_mar/wid,30,1,high_qualif/self_emp/mgmt,1,good
392,0<=X<200,existing_paid,furniture/equipment,983,>=1000,<1,female_div/dep/mar,19,1,unskilled_resident,1,good
393,<0,existing_paid,new_car,3249,<100,4<=X<7,male_single,39,1,high_qualif/self_emp/mgmt,2,good
394,<0,critical/other_existing_credit,radio/tv,1957,<100,4<=X<7,female_div/dep/mar,31,1,skilled,1,good
395,no_checking,critical/other_existing_credit,furniture/equipment,2406,<100,unemployed,male_single,31,1,high_qualif/self_emp/mgmt,1,good
396,0<=X<200,delayed_previously,education,11760,100<=X<500,4<=X<7,male_single,32,1,skilled,1,good
397,<0,existing_paid,furniture/equipment,2578,<100,unemployed,female_div/dep/mar,55,1,high_qualif/self_emp/mgmt,1,good
398,<0,critical/other_existing_credit,furniture/equipment,2348,<100,1<=X<4,male_mar/wid,46,2,skilled,1,good
399,0<=X<200,existing_paid,new_car,1223,<100,>=7,male_div/sep,46,2,skilled,1,bad
400,no_checking,critical/other_existing_credit,radio/tv,1516,>=1000,1<=X<4,female_div/dep/mar,43,2,unskilled_resident,1,good
401,no_checking,existing_paid,radio/tv,1473,<100,<1,male_mar/wid,39,1,skilled,1,good
402,0<=X<200,critical/other_existing_credit,business,1887,no_savings,1<=X<4,male_mar/wid,28,2,skilled,1,good
403,no_checking,delayed_previously,business,8648,<100,<1,male_single,27,2,skilled,1,bad
404,no_checking,delayed_previously,new_car,802,<100,1<=X<4,male_single,27,2,unskilled_resident,1,good
405,0<=X<200,delayed_previously,new_car,2899,no_savings,>=7,male_single,43,1,skilled,2,good
406,0<=X<200,existing_paid,radio/tv,2039,<100,<1,male_mar/wid,22,1,skilled,1,bad
407,no_checking,critical/other_existing_credit,used_car,2197,no_savings,4<=X<7,male_single,43,2,skilled,2,good
408,<0,existing_paid,radio/tv,1053,<100,<1,male_mar/wid,27,1,skilled,1,good
409,no_checking,existing_paid,radio/tv,3235,500<=X<1000,>=7,male_div/sep,26,1,high_qualif/self_emp/mgmt,1,good
410,>=200,critical/other_existing_credit,new_car,939,500<=X<1000,4<=X<7,male_mar/wid,28,3,skilled,1,bad
411,0<=X<200,existing_paid,radio/tv,1967,<100,>=7,female_div/dep/mar,20,1,skilled,1,good
412,no_checking,critical/other_existing_credit,used_car,7253,<100,4<=X<7,male_single,35,2,high_qualif/self_emp/mgmt,1,good
413,no_checking,critical/other_existing_credit,business,2292,<100,unemployed,male_single,42,2,high_qualif/self_emp/mgmt,1,bad
414,no_checking,existing_paid,new_car,1597,500<=X<1000,1<=X<4,male_single,40,1,unskilled_resident,2,good
415,<0,existing_paid,new_car,1381,no_savings,1<=X<4,female_div/dep/mar,35,1,skilled,1,bad
416,no_checking,critical/other_existing_credit,used_car,5842,<100,>=7,male_single,35,2,skilled,2,good
417,<0,existing_paid,new_car,2579,<100,<1,male_single,33,1,unskilled_resident,2,bad
418,<0,delayed_previously,education,8471,no_savings,1<=X<4,female_div/dep/mar,23,2,skilled,1,good
419,no_checking,existing_paid,new_car,2782,500<=X<1000,4<=X<7,female_div/dep/mar,31,1,high_qualif/self_emp/mgmt,1,good
420,0<=X<200,existing_paid,new_car,1042,no_savings,1<=X<4,female_div/dep/mar,33,1,skilled,1,bad
421,no_checking,existing_paid,new_car,3186,>=1000,4<=X<7,female_div/dep/mar,20,1,skilled,1,good
422,0<=X<200,existing_paid,used_car,2028,no_savings,1<=X<4,male_single,30,1,skilled,1,good
423,0<=X<200,critical/other_existing_credit,new_car,958,<100,4<=X<7,male_single,47,2,unskilled_resident,2,good
424,no_checking,delayed_previously,furniture/equipment,1591,100<=X<500,4<=X<7,male_single,34,2,high_qualif/self_emp/mgmt,1,good
425,0<=X<200,existing_paid,furniture/equipment,2762,no_savings,>=7,female_div/dep/mar,25,1,skilled,1,bad
426,0<=X<200,existing_paid,used_car,2779,<100,1<=X<4,male_mar/wid,21,1,skilled,1,good
427,no_checking,critical/other_existing_credit,radio/tv,2743,<100,>=7,male_single,29,2,skilled,1,good
428,no_checking,critical/other_existing_credit,radio/tv,1149,>=1000,1<=X<4,male_single,46,2,skilled,1,good
429,no_checking,existing_paid,furniture/equipment,1313,<100,>=7,male_single,20,1,skilled,1,good
430,<0,critical/other_existing_credit,repairs,1190,<100,unemployed,female_div/dep/mar,55,3,unemp/unskilled_non_res,2,bad
431,no_checking,existing_paid,business,3448,<100,4<=X<7,male_single,74,1,unskilled_resident,1,good
432,0<=X<200,existing_paid,other,1328,<100,1<=X<4,male_single,29,2,high_qualif/self_emp/mgmt,1,bad
433,<0,critical/other_existing_credit,furniture/equipment,1872,<100,unemployed,male_single,36,3,high_qualif/self_emp/mgmt,1,good
434,no_checking,critical/other_existing_credit,repairs,2058,<100,1<=X<4,male_div/sep,33,2,skilled,1,good
435,<0,existing_paid,furniture/equipment,2136,<100,1<=X<4,male_single,25,1,skilled,1,good
436,0<=X<200,existing_paid,radio/tv,1484,no_savings,1<=X<4,male_mar/wid,25,1,skilled,1,bad
437,no_checking,existing_paid,repairs,660,500<=X<1000,4<=X<7,male_mar/wid,23,1,unskilled_resident,1,good
438,no_checking,critical/other_existing_credit,new_car,1287,>=1000,>=7,female_div/dep/mar,37,2,skilled,1,good
439,<0,critical/other_existing_credit,repairs,3394,<100,unemployed,male_single,65,2,unemp/unskilled_non_res,1,good
440,>=200,allpaid,business,609,<100,<1,female_div/dep/mar,26,1,unemp/unskilled_non_res,1,bad
441,no_checking,existing_paid,new_car,1884,<100,>=7,male_single,39,1,high_qualif/self_emp/mgmt,1,good
442,<0,existing_paid,furniture/equipment,1620,<100,1<=X<4,female_div/dep/mar,30,1,skilled,1,good
443,0<=X<200,delayed_previously,other,2629,<100,1<=X<4,male_single,29,2,skilled,1,good
444,no_checking,existing_paid,education,7190,<100,>=7,male_single,41,1,unskilled_resident,2,bad
445,0<=X<200,critical/other_existing_credit,furniture/equipment,5096,<100,1<=X<4,female_div/dep/mar,30,1,high_qualif/self_emp/mgmt,1,bad
446,no_checking,critical/other_existing_credit,education,1244,no_savings,>=7,female_div/dep/mar,41,2,unskilled_resident,1,good
447,<0,existing_paid,new_car,1842,<100,<1,female_div/dep/mar,34,1,skilled,1,bad
448,0<=X<200,existing_paid,radio/tv,2576,<100,1<=X<4,male_single,35,1,skilled,1,good
449,>=200,existing_paid,furniture/equipment,1424,no_savings,>=7,female_div/dep/mar,55,1,high_qualif/self_emp/mgmt,1,good
450,0<=X<200,delayed_previously,repairs,1512,>=1000,1<=X<4,male_mar/wid,61,2,skilled,1,bad
451,no_checking,critical/other_existing_credit,used_car,11054,no_savings,1<=X<4,male_single,30,1,high_qualif/self_emp/mgmt,1,good
452,no_checking,existing_paid,radio/tv,518,<100,1<=X<4,female_div/dep/mar,29,1,skilled,1,good
453,no_checking,no_credits/all_paid,furniture/equipment,2759,<100,>=7,male_single,34,2,skilled,1,good
454,no_checking,existing_paid,used_car,2670,<100,>=7,male_single,35,1,high_qualif/self_emp/mgmt,1,good
455,<0,existing_paid,new_car,4817,<100,4<=X<7,male_single,31,1,skilled,1,bad
456,no_checking,existing_paid,used_car,2679,<100,<1,female_div/dep/mar,29,1,high_qualif/self_emp/mgmt,1,good
457,<0,critical/other_existing_credit,new_car,3905,<100,1<=X<4,male_single,36,2,skilled,2,good
458,<0,existing_paid,used_car,3386,<100,>=7,male_single,35,1,skilled,1,bad
459,<0,existing_paid,domestic_appliance,343,<100,<1,female_div/dep/mar,27,1,skilled,1,good
460,no_checking,existing_paid,radio/tv,4594,<100,<1,male_single,32,1,skilled,1,good
461,<0,existing_paid,furniture/equipment,3620,<100,1<=X<4,male_single,37,1,skilled,2,good
462,<0,existing_paid,new_car,1721,<100,<1,male_single,36,1,skilled,1,good
463,0<=X<200,existing_paid,furniture/equipment,3017,<100,<1,female_div/dep/mar,34,1,high_qualif/self_emp/mgmt,1,good
464,0<=X<200,existing_paid,retraining,754,no_savings,>=7,male_single,38,2,skilled,1,good
465,no_checking,existing_paid,business,1950,<100,4<=X<7,male_single,34,2,skilled,1,good
466,<0,existing_paid,used_car,2924,<100,1<=X<4,male_single,63,1,skilled,2,good
467,<0,delayed_previously,radio/tv,1659,<100,<1,female_div/dep/mar,29,1,unskilled_resident,1,bad
468,no_checking,delayed_previously,radio/tv,7238,no_savings,>=7,male_single,32,2,skilled,2,good
469,no_checking,delayed_previously,business,2764,<100,1<=X<4,female_div/dep/mar,26,2,skilled,1,good
470,no_checking,delayed_previously,used_car,4679,<100,4<=X<7,male_single,35,2,unskilled_resident,1,good
471,0<=X<200,existing_paid,radio/tv,3092,100<=X<500,<1,male_mar/wid,22,1,skilled,1,bad
472,<0,existing_paid,education,448,<100,<1,female_div/dep/mar,23,1,skilled,1,bad
473,<0,existing_paid,new_car,654,<100,1<=X<4,male_single,28,1,unskilled_resident,1,bad
474,no_checking,existing_paid,retraining,1238,no_savings,unemployed,male_single,36,1,high_qualif/self_emp/mgmt,2,good
475,0<=X<200,critical/other_existing_credit,radio/tv,1245,<100,1<=X<4,male_mar/wid,33,1,skilled,1,bad
476,<0,no_credits/all_paid,furniture/equipment,3114,<100,<1,female_div/dep/mar,26,1,skilled,1,bad
477,no_checking,existing_paid,used_car,2569,500<=X<1000,1<=X<4,male_single,24,1,skilled,1,good
478,>=200,existing_paid,radio/tv,5152,<100,4<=X<7,male_single,25,1,skilled,1,good
479,0<=X<200,existing_paid,business,1037,100<=X<500,4<=X<7,male_single,39,1,unskilled_resident,1,good
480,<0,critical/other_existing_credit,furniture/equipment,1478,<100,>=7,male_single,44,2,skilled,2,good
481,0<=X<200,critical/other_existing_credit,radio/tv,3573,<100,1<=X<4,female_div/dep/mar,23,1,unskilled_resident,1,good
482,0<=X<200,existing_paid,new_car,1201,<100,<1,male_single,26,1,skilled,1,good
483,<0,existing_paid,furniture/equipment,3622,>=1000,>=7,female_div/dep/mar,57,2,skilled,1,good
484,no_checking,delayed_previously,furniture/equipment,960,>=1000,4<=X<7,female_div/dep/mar,30,2,skilled,1,good
485,no_checking,critical/other_existing_credit,new_car,1163,500<=X<1000,1<=X<4,male_single,44,1,skilled,1,good
486,0<=X<200,delayed_previously,new_car,1209,<100,unemployed,male_single,47,1,high_qualif/self_emp/mgmt,1,bad
487,no_checking,existing_paid,radio/tv,3077,<100,1<=X<4,male_single,52,1,skilled,1,good
488,no_checking,existing_paid,new_car,3757,<100,>=7,female_div/dep/mar,62,1,skilled,1,good
489,no_checking,existing_paid,new_car,1418,100<=X<500,1<=X<4,male_single,35,1,unskilled_resident,1,good
490,no_checking,existing_paid,new_car,3518,<100,1<=X<4,male_single,26,1,skilled,1,good
491,no_checking,critical/other_existing_credit,radio/tv,1934,<100,>=7,male_single,26,2,skilled,1,good
492,0<=X<200,no_credits/all_paid,business,8318,<100,>=7,female_div/dep/mar,42,2,high_qualif/self_emp/mgmt,1,bad
493,no_checking,critical/other_existing_credit,radio/tv,1237,100<=X<500,1<=X<4,female_div/dep/mar,27,2,skilled,1,good
494,0<=X<200,existing_paid,radio/tv,368,no_savings,>=7,male_single,38,1,skilled,1,good
495,<0,critical/other_existing_credit,new_car,2122,<100,1<=X<4,male_single,39,2,unskilled_resident,2,good
496,<0,existing_paid,furniture/equipment,2996,no_savings,1<=X<4,male_mar/wid,20,1,skilled,1,bad
497,0<=X<200,existing_paid,furniture/equipment,9034,100<=X<500,<1,male_single,29,1,high_qualif/self_emp/mgmt,1,bad
498,no_checking,critical/other_existing_credit,furniture/equipment,1585,<100,4<=X<7,male_single,40,2,skilled,1,good
499,0<=X<200,existing_paid,radio/tv,1301,<100,>=7,male_mar/wid,32,1,unskilled_resident,1,good
500,>=200,critical/other_existing_credit,new_car,1323,100<=X<500,>=7,male_div/sep,28,2,skilled,2,good
501,<0,existing_paid,new_car,3123,<100,<1,female_div/dep/mar,27,1,skilled,1,bad
502,<0,existing_paid,used_car,5493,<100,>=7,male_single,42,1,skilled,2,good
503,>=200,existing_paid,radio/tv,1126,100<=X<500,>=7,male_div/sep,49,1,skilled,1,good
504,0<=X<200,critical/other_existing_credit,radio/tv,1216,100<=X<500,<1,male_single,38,2,skilled,2,bad
505,<0,existing_paid,new_car,1207,<100,<1,female_div/dep/mar,24,1,skilled,1,bad
506,no_checking,existing_paid,new_car,1309,no_savings,1<=X<4,male_single,27,1,unskilled_resident,1,bad
507,>=200,critical/other_existing_credit,used_car,2360,500<=X<1000,1<=X<4,male_single,36,1,skilled,1,good
508,0<=X<200,allpaid,new_car,6850,100<=X<500,unemployed,male_single,34,1,high_qualif/self_emp/mgmt,2,bad
509,no_checking,existing_paid,radio/tv,1413,<100,1<=X<4,male_mar/wid,28,1,skilled,1,good
510,no_checking,existing_paid,used_car,8588,100<=X<500,>=7,male_single,45,1,high_qualif/self_emp/mgmt,1,good
511,<0,existing_paid,new_car,759,<100,4<=X<7,male_single,26,1,skilled,1,bad
512,no_checking,existing_paid,used_car,4686,<100,1<=X<4,male_single,32,1,high_qualif/self_emp/mgmt,1,good
513,>=200,existing_paid,business,2687,<100,4<=X<7,male_single,26,1,skilled,1,good
514,0<=X<200,delayed_previously,radio/tv,585,<100,1<=X<4,male_mar/wid,20,2,skilled,1,good
515,no_checking,existing_paid,new_car,2255,no_savings,<1,male_single,54,1,skilled,1,good
516,<0,critical/other_existing_credit,new_car,609,<100,4<=X<7,female_div/dep/mar,37,2,skilled,1,good
517,<0,critical/other_existing_credit,new_car,1361,<100,<1,male_single,40,1,unskilled_resident,2,good
518,no_checking,critical/other_existing_credit,furniture/equipment,7127,<100,<1,female_div/dep/mar,23,2,skilled,1,bad
519,<0,existing_paid,new_car,1203,100<=X<500,>=7,male_single,43,1,skilled,1,good
520,no_checking,critical/other_existing_credit,radio/tv,700,no_savings,>=7,male_single,36,2,skilled,1,good
521,no_checking,critical/other_existing_credit,repairs,5507,<100,>=7,male_single,44,2,skilled,1,good
522,<0,existing_paid,radio/tv,3190,<100,1<=X<4,female_div/dep/mar,24,1,skilled,1,bad
523,<0,no_credits/all_paid,furniture/equipment,7119,<100,1<=X<4,male_single,53,2,skilled,2,bad
524,no_checking,existing_paid,used_car,3488,100<=X<500,4<=X<7,female_div/dep/mar,23,1,skilled,1,good
525,0<=X<200,existing_paid,radio/tv,1113,<100,1<=X<4,female_div/dep/mar,26,1,unskilled_resident,2,good
526,0<=X<200,existing_paid,used_car,7966,<100,<1,male_single,30,2,skilled,1,good
527,no_checking,critical/other_existing_credit,education,1532,100<=X<500,1<=X<4,female_div/dep/mar,31,1,skilled,1,good
528,no_checking,critical/other_existing_credit,radio/tv,1503,<100,4<=X<7,male_single,42,2,unskilled_resident,2,good
529,<0,existing_paid,radio/tv,2302,<100,1<=X<4,male_div/sep,31,1,skilled,1,bad
530,<0,existing_paid,new_car,662,<100,<1,male_single,41,1,unskilled_resident,2,good
531,0<=X<200,existing_paid,education,2273,<100,4<=X<7,male_single,32,2,skilled,2,good
532,0<=X<200,existing_paid,new_car,2631,100<=X<500,1<=X<4,female_div/dep/mar,28,2,skilled,1,bad
533,no_checking,delayed_previously,used_car,1503,<100,1<=X<4,male_mar/wid,41,1,skilled,1,good
534,no_checking,existing_paid,radio/tv,1311,100<=X<500,4<=X<7,male_mar/wid,26,1,skilled,1,good
535,no_checking,existing_paid,radio/tv,3105,no_savings,<1,male_single,25,2,skilled,1,good
536,>=200,critical/other_existing_credit,education,2319,<100,<1,male_div/sep,33,1,skilled,1,bad
537,<0,existing_paid,new_car,1374,no_savings,unemployed,female_div/dep/mar,75,1,high_qualif/self_emp/mgmt,1,good
538,0<=X<200,critical/other_existing_credit,furniture/equipment,3612,<100,>=7,female_div/dep/mar,37,1,skilled,1,good
539,<0,existing_paid,new_car,7763,<100,>=7,male_single,42,1,high_qualif/self_emp/mgmt,1,bad
540,>=200,existing_paid,furniture/equipment,3049,<100,<1,female_div/dep/mar,45,1,unskilled_resident,1,good
541,0<=X<200,existing_paid,radio/tv,1534,<100,<1,male_mar/wid,23,1,skilled,1,bad
542,no_checking,delayed_previously,new_car,2032,<100,>=7,male_single,60,2,skilled,1,good
543,<0,existing_paid,furniture/equipment,6350,no_savings,>=7,male_single,31,1,skilled,1,bad
544,>=200,existing_paid,furniture/equipment,2864,<100,1<=X<4,male_single,34,1,unskilled_resident,2,bad
545,no_checking,critical/other_existing_credit,new_car,1255,<100,>=7,male_single,61,2,unskilled_resident,1,good
546,<0,delayed_previously,new_car,1333,<100,unemployed,male_single,43,2,skilled,2,bad
547,no_checking,critical/other_existing_credit,new_car,2022,<100,1<=X<4,female_div/dep/mar,37,1,skilled,1,good
548,no_checking,existing_paid,radio/tv,1552,<100,4<=X<7,male_single,32,1,skilled,2,good
549,<0,allpaid,radio/tv,626,<100,1<=X<4,female_div/dep/mar,24,1,unskilled_resident,1,bad
550,no_checking,critical/other_existing_credit,used_car,8858,no_savings,4<=X<7,male_single,35,2,skilled,1,good
551,no_checking,critical/other_existing_credit,repairs,996,no_savings,4<=X<7,female_div/dep/mar,23,2,skilled,1,good
552,no_checking,allpaid,radio/tv,1750,500<=X<1000,>=7,male_single,45,1,unskilled_resident,2,good
553,<0,existing_paid,radio/tv,6999,<100,4<=X<7,male_mar/wid,34,2,skilled,1,bad
554,0<=X<200,critical/other_existing_credit,new_car,1995,100<=X<500,<1,male_single,27,1,skilled,1,good
555,0<=X<200,existing_paid,education,1199,<100,4<=X<7,female_div/dep/mar,67,2,high_qualif/self_emp/mgmt,1,good
556,0<=X<200,existing_paid,radio/tv,1331,<100,<1,male_single,22,1,skilled,1,bad
557,0<=X<200,no_credits/all_paid,new_car,2278,100<=X<500,<1,female_div/dep/mar,28,2,skilled,1,bad
558,no_checking,no_credits/all_paid,new_car,5003,no_savings,1<=X<4,female_div/dep/mar,29,2,skilled,1,bad
559,<0,allpaid,furniture/equipment,3552,<100,4<=X<7,male_single,27,1,skilled,1,bad
560,0<=X<200,critical/other_existing_credit,furniture/equipment,19280,<100,<1,male_single,31,2,unskilled_resident,1,bad
561,<0,existing_paid,used_car,2964,no_savings,>=7,male_single,49,1,skilled,2,good
562,<0,allpaid,radio/tv,1546,<100,4<=X<7,male_single,24,1,unskilled_resident,1,bad
563,>=200,delayed_previously,radio/tv,683,<100,<1,female_div/dep/mar,29,1,skilled,1,good
564,0<=X<200,existing_paid,new_car,12389,no_savings,1<=X<4,male_single,37,1,skilled,1,bad
565,0<=X<200,delayed_previously,business,4712,no_savings,1<=X<4,male_single,37,2,high_qualif/self_emp/mgmt,1,good
566,0<=X<200,delayed_previously,radio/tv,1553,100<=X<500,4<=X<7,female_div/dep/mar,23,2,skilled,1,good
567,<0,existing_paid,new_car,1372,<100,4<=X<7,male_div/sep,36,1,skilled,1,bad
568,no_checking,critical/other_existing_credit,radio/tv,2578,>=1000,>=7,male_single,34,1,skilled,1,good
569,0<=X<200,existing_paid,radio/tv,3979,no_savings,4<=X<7,male_single,41,2,skilled,2,good
570,<0,existing_paid,radio/tv,6758,<100,1<=X<4,female_div/dep/mar,31,1,skilled,1,bad
571,<0,existing_paid,furniture/equipment,3234,<100,<1,female_div/dep/mar,23,1,unskilled_resident,1,bad
572,no_checking,critical/other_existing_credit,radio/tv,5954,<100,4<=X<7,male_single,38,1,skilled,1,good
573,no_checking,existing_paid,used_car,5433,no_savings,unemployed,female_div/dep/mar,26,1,high_qualif/self_emp/mgmt,1,good
574,<0,existing_paid,business,806,<100,1<=X<4,female_div/dep/mar,22,1,unskilled_resident,1,good
575,0<=X<200,existing_paid,radio/tv,1082,<100,>=7,male_single,27,2,unskilled_resident,1,good
576,no_checking,critical/other_existing_credit,furniture/equipment,2788,<100,4<=X<7,female_div/dep/mar,24,2,skilled,1,good
577,0<=X<200,existing_paid,radio/tv,2930,<100,4<=X<7,female_div/dep/mar,27,1,skilled,1,good
578,no_checking,critical/other_existing_credit,education,1927,no_savings,1<=X<4,female_div/dep/mar,33,2,skilled,1,good
579,0<=X<200,critical/other_existing_credit,new_car,2820,<100,<1,male_div/sep,27,2,skilled,1,bad
580,no_checking,existing_paid,retraining,937,<100,<1,male_mar/wid,27,2,unskilled_resident,1,good
581,0<=X<200,critical/other_existing_credit,new_car,1056,<100,>=7,male_single,30,2,skilled,1,bad
582,0<=X<200,critical/other_existing_credit,new_car,3124,<100,<1,male_single,49,2,unskilled_resident,2,good
583,no_checking,existing_paid,furniture/equipment,1388,<100,1<=X<4,female_div/dep/mar,26,1,skilled,1,good
584,0<=X<200,existing_paid,repairs,2384,<100,<1,male_single,33,1,unskilled_resident,1,bad
585,no_checking,existing_paid,new_car,2133,no_savings,>=7,female_div/dep/mar,52,1,high_qualif/self_emp/mgmt,1,good
586,<0,existing_paid,furniture/equipment,2039,<100,1<=X<4,female_div/dep/mar,20,1,skilled,1,bad
587,<0,critical/other_existing_credit,new_car,2799,<100,1<=X<4,male_single,36,2,skilled,2,good
588,<0,existing_paid,furniture/equipment,1289,<100,1<=X<4,male_single,21,1,unskilled_resident,1,good
589,<0,existing_paid,domestic_appliance,1217,<100,1<=X<4,male_mar/wid,47,1,unskilled_resident,1,bad
590,<0,critical/other_existing_credit,furniture/equipment,2246,<100,>=7,male_single,60,2,skilled,1,bad
591,<0,critical/other_existing_credit,radio/tv,385,<100,4<=X<7,female_div/dep/mar,58,4,unskilled_resident,1,good
592,0<=X<200,delayed_previously,new_car,1965,no_savings,1<=X<4,female_div/dep/mar,42,2,skilled,1,good
593,no_checking,existing_paid,business,1572,>=1000,>=7,female_div/dep/mar,36,1,unskilled_resident,1,good
594,0<=X<200,existing_paid,new_car,2718,<100,1<=X<4,female_div/dep/mar,20,1,unskilled_resident,1,bad
595,<0,allpaid,other,13580,no_savings,>=7,male_single,40,1,high_qualif/self_emp/mgmt,1,bad
596,0<=X<200,allpaid,new_car,931,100<=X<500,<1,female_div/dep/mar,32,1,unskilled_resident,1,bad
597,<0,existing_paid,new_car,1442,<100,4<=X<7,female_div/dep/mar,23,2,skilled,1,bad
598,0<=X<200,no_credits/all_paid,business,4241,<100,1<=X<4,male_single,36,3,unskilled_resident,1,bad
599,no_checking,critical/other_existing_credit,new_car,2775,<100,4<=X<7,male_single,31,2,skilled,1,bad
600,no_checking,delayed_previously,business,3863,<100,1<=X<4,male_single,32,1,skilled,1,good
601,0<=X<200,existing_paid,radio/tv,2329,<100,<1,female_div/dep/mar,45,1,skilled,1,good
602,0<=X<200,existing_paid,furniture/equipment,918,<100,1<=X<4,female_div/dep/mar,30,1,skilled,1,bad
603,0<=X<200,allpaid,education,1837,<100,4<=X<7,female_div/dep/mar,34,1,unskilled_resident,1,bad
604,no_checking,existing_paid,furniture/equipment,3349,<100,1<=X<4,female_div/dep/mar,28,1,high_qualif/self_emp/mgmt,1,bad
605,>=200,existing_paid,furniture/equipment,1275,<100,<1,female_div/dep/mar,23,1,skilled,1,good
606,<0,allpaid,furniture/equipment,2828,500<=X<1000,1<=X<4,male_single,22,1,skilled,1,good
607,no_checking,critical/other_existing_credit,business,4526,<100,1<=X<4,male_single,74,1,high_qualif/self_emp/mgmt,1,good
608,0<=X<200,existing_paid,radio/tv,2671,100<=X<500,1<=X<4,female_div/dep/mar,50,1,skilled,1,bad
609,no_checking,existing_paid,radio/tv,2051,<100,<1,male_single,33,1,skilled,1,good
610,no_checking,existing_paid,used_car,1300,no_savings,>=7,male_single,45,1,skilled,2,good
611,<0,existing_paid,domestic_appliance,741,100<=X<500,unemployed,female_div/dep/mar,22,1,skilled,1,bad
612,>=200,existing_paid,new_car,1240,100<=X<500,>=7,female_div/dep/mar,48,1,unskilled_resident,2,bad
613,<0,existing_paid,radio/tv,3357,>=1000,<1,female_div/dep/mar,29,1,skilled,1,good
614,<0,allpaid,used_car,3632,<100,1<=X<4,female_div/dep/mar,22,1,skilled,1,good
615,no_checking,delayed_previously,furniture/equipment,1808,<100,4<=X<7,female_div/dep/mar,22,1,skilled,1,bad
616,0<=X<200,no_credits/all_paid,business,12204,no_savings,1<=X<4,male_single,48,1,high_qualif/self_emp/mgmt,1,good
617,0<=X<200,delayed_previously,radio/tv,9157,no_savings,1<=X<4,male_single,27,1,high_qualif/self_emp/mgmt,1,good
618,<0,critical/other_existing_credit,new_car,3676,<100,1<=X<4,male_single,37,3,skilled,2,good
619,0<=X<200,existing_paid,furniture/equipment,3441,100<=X<500,1<=X<4,female_div/dep/mar,21,1,skilled,1,bad
620,no_checking,existing_paid,new_car,640,<100,1<=X<4,male_div/sep,49,1,unskilled_resident,1,good
621,0<=X<200,critical/other_existing_credit,business,3652,<100,4<=X<7,male_single,27,2,skilled,1,good
622,no_checking,critical/other_existing_credit,new_car,1530,<100,1<=X<4,male_single,32,2,skilled,1,bad
623,no_checking,existing_paid,business,3914,no_savings,1<=X<4,male_div/sep,38,1,skilled,1,bad
624,<0,existing_paid,furniture/equipment,1858,<100,<1,female_div/dep/mar,22,1,skilled,1,good
625,<0,existing_paid,radio/tv,2600,<100,1<=X<4,male_single,65,2,skilled,1,bad
626,no_checking,existing_paid,radio/tv,1979,no_savings,>=7,male_single,35,1,skilled,1,good
627,>=200,existing_paid,furniture/equipment,2116,<100,1<=X<4,male_single,41,1,skilled,1,good
628,0<=X<200,allpaid,new_car,1437,100<=X<500,4<=X<7,male_single,29,1,skilled,1,bad
629,no_checking,critical/other_existing_credit,furniture/equipment,4042,500<=X<1000,1<=X<4,male_single,36,2,skilled,1,good
630,no_checking,existing_paid,education,3832,no_savings,>=7,male_single,64,1,unskilled_resident,1,good
631,<0,existing_paid,radio/tv,3660,<100,1<=X<4,female_div/dep/mar,28,1,skilled,1,good
632,<0,allpaid,furniture/equipment,1553,<100,1<=X<4,male_single,44,1,skilled,1,bad
633,0<=X<200,existing_paid,radio/tv,1444,no_savings,<1,male_single,23,1,skilled,1,good
634,no_checking,existing_paid,furniture/equipment,1980,<100,<1,female_div/dep/mar,19,2,skilled,1,bad
635,0<=X<200,existing_paid,new_car,1355,<100,<1,female_div/dep/mar,25,1,unskilled_resident,1,bad
636,no_checking,existing_paid,education,1393,<100,>=7,male_single,47,3,skilled,2,good
637,no_checking,existing_paid,radio/tv,1376,500<=X<1000,4<=X<7,female_div/dep/mar,28,1,skilled,1,good
638,no_checking,delayed_previously,radio/tv,15653,<100,4<=X<7,male_single,21,2,skilled,1,good
639,no_checking,existing_paid,radio/tv,1493,<100,<1,female_div/dep/mar,34,1,skilled,2,good
640,<0,delayed_previously,radio/tv,4370,<100,4<=X<7,male_single,26,2,skilled,2,bad
641,<0,existing_paid,education,750,<100,unemployed,female_div/dep/mar,27,1,unemp/unskilled_non_res,1,bad
642,0<=X<200,existing_paid,repairs,1308,<100,>=7,male_single,38,2,unskilled_resident,1,good
643,no_checking,existing_paid,education,4623,100<=X<500,1<=X<4,male_single,40,1,high_qualif/self_emp/mgmt,1,bad
644,no_checking,critical/other_existing_credit,radio/tv,1851,<100,4<=X<7,male_mar/wid,33,2,skilled,1,good
645,<0,critical/other_existing_credit,radio/tv,1880,<100,4<=X<7,male_mar/wid,32,2,high_qualif/self_emp/mgmt,1,good
646,no_checking,delayed_previously,business,7980,no_savings,<1,male_single,27,2,skilled,1,bad
647,<0,no_credits/all_paid,furniture/equipment,4583,<100,1<=X<4,male_div/sep,32,2,skilled,1,good
648,no_checking,existing_paid,new_car,13860,500<=X<1000,1<=X<4,female_div/dep/mar,26,1,skilled,1,bad
649,>=200,existing_paid,new_car,947,<100,4<=X<7,male_single,38,1,skilled,2,bad
650,<0,existing_paid,education,684,<100,1<=X<4,male_single,40,1,unskilled_resident,2,bad
651,<0,existing_paid,education,7476,<100,4<=X<7,male_single,50,1,high_qualif/self_emp/mgmt,1,good
652,0<=X<200,existing_paid,furniture/equipment,1922,<100,1<=X<4,male_single,37,1,unskilled_resident,1,bad
653,<0,existing_paid,new_car,2303,<100,>=7,male_single,45,1,skilled,1,bad
654,0<=X<200,delayed_previously,new_car,8086,100<=X<500,>=7,male_single,42,4,high_qualif/self_emp/mgmt,1,bad
655,no_checking,critical/other_existing_credit,used_car,2346,<100,4<=X<7,male_single,35,2,skilled,1,good
656,<0,existing_paid,new_car,3973,<100,unemployed,male_single,22,1,skilled,1,good
657,0<=X<200,existing_paid,new_car,888,<100,>=7,male_single,41,1,unskilled_resident,2,bad
658,no_checking,existing_paid,radio/tv,10222,no_savings,4<=X<7,male_single,37,1,skilled,1,good
659,0<=X<200,no_credits/all_paid,business,4221,<100,1<=X<4,female_div/dep/mar,28,2,skilled,1,good
660,0<=X<200,critical/other_existing_credit,furniture/equipment,6361,<100,>=7,male_single,41,1,skilled,1,good
661,>=200,existing_paid,radio/tv,1297,<100,1<=X<4,male_mar/wid,23,1,skilled,1,good
662,<0,existing_paid,new_car,900,no_savings,1<=X<4,male_mar/wid,23,1,skilled,1,bad
663,no_checking,existing_paid,furniture/equipment,2241,<100,>=7,male_single,50,2,skilled,1,good
664,0<=X<200,delayed_previously,furniture/equipment,1050,<100,unemployed,male_single,35,2,high_qualif/self_emp/mgmt,1,good
665,>=200,critical/other_existing_credit,education,1047,<100,1<=X<4,female_div/dep/mar,50,1,unskilled_resident,1,good
666,no_checking,critical/other_existing_credit,other,6314,<100,unemployed,male_single,27,2,high_qualif/self_emp/mgmt,1,good
667,0<=X<200,allpaid,furniture/equipment,3496,>=1000,1<=X<4,male_single,34,1,skilled,2,good
668,no_checking,allpaid,business,3609,<100,1<=X<4,female_div/dep/mar,27,1,skilled,1,good
669,<0,critical/other_existing_credit,new_car,4843,<100,>=7,male_single,43,2,skilled,1,bad
670,>=200,critical/other_existing_credit,radio/tv,3017,<100,>=7,male_single,47,1,skilled,1,good
671,no_checking,critical/other_existing_credit,business,4139,100<=X<500,1<=X<4,male_single,27,2,unskilled_resident,1,good
672,no_checking,existing_paid,business,5742,100<=X<500,4<=X<7,male_single,31,2,skilled,1,good
673,no_checking,existing_paid,new_car,10366,<100,>=7,male_single,42,1,high_qualif/self_emp/mgmt,1,good
674,no_checking,critical/other_existing_credit,new_car,2080,500<=X<1000,1<=X<4,male_mar/wid,24,1,skilled,1,good
675,no_checking,delayed_previously,business,2580,500<=X<1000,<1,male_single,41,1,unskilled_resident,2,bad
676,no_checking,critical/other_existing_credit,radio/tv,4530,<100,4<=X<7,female_div/dep/mar,26,1,high_qualif/self_emp/mgmt,1,good
677,no_checking,critical/other_existing_credit,furniture/equipment,5150,<100,>=7,male_single,33,1,skilled,1,good
678,0<=X<200,existing_paid,radio/tv,5595,100<=X<500,1<=X<4,male_mar/wid,24,1,skilled,1,bad
679,<0,existing_paid,radio/tv,2384,<100,>=7,male_single,64,1,unskilled_resident,1,good
680,no_checking,existing_paid,radio/tv,1453,<100,<1,female_div/dep/mar,26,1,skilled,1,good
681,no_checking,existing_paid,education,1538,<100,<1,female_div/dep/mar,56,1,skilled,1,good
682,no_checking,existing_paid,radio/tv,2279,no_savings,1<=X<4,male_single,37,1,skilled,1,good
683,no_checking,delayed_previously,radio/tv,1478,<100,1<=X<4,male_mar/wid,33,2,skilled,1,good
684,no_checking,critical/other_existing_credit,radio/tv,5103,<100,<1,male_mar/wid,47,3,skilled,1,good
685,0<=X<200,delayed_previously,business,9857,100<=X<500,4<=X<7,male_single,31,2,unskilled_resident,2,good
686,no_checking,existing_paid,new_car,6527,no_savings,1<=X<4,male_single,34,1,skilled,2,good
687,>=200,critical/other_existing_credit,radio/tv,1347,no_savings,4<=X<7,male_single,27,2,skilled,1,good
688,0<=X<200,delayed_previously,new_car,2862,100<=X<500,>=7,male_single,30,1,skilled,1,good
689,no_checking,existing_paid,radio/tv,2753,100<=X<500,>=7,male_single,35,1,skilled,1,good
690,<0,existing_paid,new_car,3651,>=1000,1<=X<4,male_single,31,1,skilled,2,good
691,<0,critical/other_existing_credit,furniture/equipment,975,<100,1<=X<4,male_div/sep,25,2,skilled,1,good
692,0<=X<200,existing_paid,repairs,2631,100<=X<500,1<=X<4,female_div/dep/mar,25,1,unskilled_resident,1,good
693,0<=X<200,existing_paid,radio/tv,2896,100<=X<500,<1,male_single,29,1,skilled,1,good
694,<0,critical/other_existing_credit,new_car,4716,no_savings,<1,male_single,44,2,unskilled_resident,2,good
695,no_checking,existing_paid,radio/tv,2284,<100,4<=X<7,male_single,28,1,skilled,1,good
696,no_checking,existing_paid,used_car,1236,500<=X<1000,1<=X<4,male_single,50,1,skilled,1,good
697,0<=X<200,existing_paid,radio/tv,1103,<100,4<=X<7,male_single,29,2,skilled,1,good
698,no_checking,critical/other_existing_credit,new_car,926,<100,unemployed,female_div/dep/mar,38,1,unemp/unskilled_non_res,1,good
699,no_checking,critical/other_existing_credit,radio/tv,1800,<100,1<=X<4,male_single,24,2,skilled,1,good
700,>=200,existing_paid,education,1905,<100,>=7,male_single,40,1,high_qualif/self_emp/mgmt,1,good
701,no_checking,existing_paid,furniture/equipment,1123,500<=X<1000,1<=X<4,female_div/dep/mar,29,1,unskilled_resident,1,bad
702,<0,critical/other_existing_credit,used_car,6331,<100,>=7,male_single,46,2,skilled,1,bad
703,>=200,existing_paid,radio/tv,1377,100<=X<500,>=7,female_div/dep/mar,47,1,skilled,1,good
704,0<=X<200,delayed_previously,business,2503,100<=X<500,>=7,male_single,41,2,skilled,1,good
705,0<=X<200,existing_paid,business,2528,<100,<1,female_div/dep/mar,32,1,skilled,2,good
706,no_checking,existing_paid,new_car,5324,500<=X<1000,>=7,female_div/dep/mar,35,1,skilled,1,good
707,0<=X<200,existing_paid,new_car,6560,100<=X<500,4<=X<7,male_single,24,1,skilled,1,bad
708,0<=X<200,no_credits/all_paid,furniture/equipment,2969,<100,<1,female_div/dep/mar,25,2,skilled,1,bad
709,0<=X<200,existing_paid,radio/tv,1206,<100,>=7,female_div/dep/mar,25,1,skilled,1,good
710,0<=X<200,existing_paid,radio/tv,2118,<100,1<=X<4,male_single,37,1,unskilled_resident,2,good
711,no_checking,critical/other_existing_credit,radio/tv,629,500<=X<1000,>=7,male_single,32,2,high_qualif/self_emp/mgmt,1,good
712,<0,allpaid,education,1198,<100,>=7,female_div/dep/mar,35,1,skilled,1,bad
713,no_checking,existing_paid,used_car,2476,no_savings,>=7,male_single,46,1,high_qualif/self_emp/mgmt,1,good
714,<0,critical/other_existing_credit,radio/tv,1138,<100,1<=X<4,male_single,25,2,unskilled_resident,1,good
715,0<=X<200,existing_paid,new_car,14027,<100,4<=X<7,male_single,27,1,high_qualif/self_emp/mgmt,1,bad
716,no_checking,critical/other_existing_credit,used_car,7596,no_savings,>=7,male_single,63,2,skilled,1,good
717,no_checking,critical/other_existing_credit,radio/tv,3077,no_savings,>=7,male_single,40,2,skilled,2,good
718,no_checking,existing_paid,radio/tv,1505,<100,1<=X<4,male_single,32,1,high_qualif/self_emp/mgmt,1,good
719,>=200,critical/other_existing_credit,radio/tv,3148,no_savings,1<=X<4,male_single,31,2,skilled,1,good
720,0<=X<200,no_credits/all_paid,used_car,6148,100<=X<500,>=7,male_mar/wid,31,2,skilled,1,good
721,>=200,no_credits/all_paid,radio/tv,1337,<100,<1,male_single,34,2,high_qualif/self_emp/mgmt,1,bad
722,0<=X<200,allpaid,education,433,>=1000,<1,female_div/dep/mar,24,1,skilled,2,bad
723,<0,existing_paid,new_car,1228,<100,1<=X<4,female_div/dep/mar,24,1,unskilled_resident,1,bad
724,0<=X<200,existing_paid,radio/tv,790,500<=X<1000,1<=X<4,female_div/dep/mar,66,1,unskilled_resident,1,good
725,no_checking,existing_paid,new_car,2570,<100,1<=X<4,female_div/dep/mar,21,1,skilled,1,bad
726,no_checking,critical/other_existing_credit,new_car,250,>=1000,1<=X<4,female_div/dep/mar,41,2,unskilled_resident,1,good
727,no_checking,critical/other_existing_credit,radio/tv,1316,500<=X<1000,1<=X<4,male_mar/wid,47,2,unskilled_resident,1,good
728,<0,existing_paid,radio/tv,1882,<100,1<=X<4,female_div/dep/mar,25,2,skilled,1,bad
729,0<=X<200,allpaid,business,6416,<100,>=7,female_div/dep/mar,59,1,skilled,1,bad
730,>=200,critical/other_existing_credit,business,1275,>=1000,1<=X<4,male_div/sep,36,2,skilled,1,good
731,0<=X<200,delayed_previously,radio/tv,6403,<100,<1,male_single,33,1,skilled,1,good
732,<0,existing_paid,radio/tv,1987,<100,1<=X<4,male_single,21,1,unskilled_resident,2,bad
733,0<=X<200,existing_paid,radio/tv,760,<100,4<=X<7,female_div/dep/mar,44,1,unskilled_resident,1,good
734,no_checking,existing_paid,used_car,2603,>=1000,1<=X<4,female_div/dep/mar,28,1,skilled,1,good
735,no_checking,critical/other_existing_credit,new_car,3380,<100,4<=X<7,female_div/dep/mar,37,1,skilled,2,good
736,0<=X<200,allpaid,domestic_appliance,3990,no_savings,<1,female_div/dep/mar,29,1,unemp/unskilled_non_res,1,good
737,0<=X<200,existing_paid,used_car,11560,<100,1<=X<4,female_div/dep/mar,23,2,high_qualif/self_emp/mgmt,1,bad
738,<0,existing_paid,new_car,4380,100<=X<500,1<=X<4,male_single,35,1,unskilled_resident,2,good
739,no_checking,critical/other_existing_credit,new_car,6761,<100,4<=X<7,male_single,45,2,high_qualif/self_emp/mgmt,2,good
740,0<=X<200,no_credits/all_paid,business,4280,100<=X<500,1<=X<4,female_div/dep/mar,26,2,unskilled_resident,1,bad
741,<0,allpaid,new_car,2325,100<=X<500,4<=X<7,male_single,32,1,skilled,1,good
742,0<=X<200,allpaid,radio/tv,1048,<100,1<=X<4,male_single,23,1,unskilled_resident,1,good
743,no_checking,existing_paid,radio/tv,3160,no_savings,>=7,male_single,41,1,skilled,1,good
744,<0,allpaid,furniture/equipment,2483,500<=X<1000,1<=X<4,male_single,22,1,skilled,1,good
745,<0,critical/other_existing_credit,furniture/equipment,14179,no_savings,4<=X<7,male_single,30,2,high_qualif/self_emp/mgmt,1,good
746,<0,critical/other_existing_credit,business,1797,<100,<1,male_single,28,2,unskilled_resident,1,good
747,<0,existing_paid,new_car,2511,<100,unemployed,female_div/dep/mar,23,1,skilled,1,good
748,<0,existing_paid,new_car,1274,<100,<1,female_div/dep/mar,37,1,unskilled_resident,1,bad
749,no_checking,existing_paid,used_car,5248,no_savings,1<=X<4,male_single,26,1,skilled,1,good
750,no_checking,existing_paid,used_car,3029,<100,4<=X<7,male_single,33,1,skilled,1,good
751,<0,existing_paid,furniture/equipment,428,<100,>=7,female_div/dep/mar,49,1,skilled,1,good
752,<0,existing_paid,new_car,976,<100,<1,female_div/dep/mar,23,1,unskilled_resident,1,bad
753,0<=X<200,existing_paid,business,841,100<=X<500,4<=X<7,female_div/dep/mar,23,1,unskilled_resident,1,good
754,no_checking,critical/other_existing_credit,radio/tv,5771,<100,4<=X<7,female_div/dep/mar,25,2,skilled,1,good
755,no_checking,delayed_previously,repairs,1555,>=1000,>=7,male_single,55,2,skilled,2,bad
756,<0,existing_paid,new_car,1285,no_savings,4<=X<7,female_div/dep/mar,32,1,skilled,1,bad
757,>=200,critical/other_existing_credit,new_car,1299,<100,1<=X<4,male_single,74,3,unemp/unskilled_non_res,2,good
758,>=200,critical/other_existing_credit,radio/tv,1271,no_savings,1<=X<4,male_single,39,2,skilled,1,bad
759,no_checking,existing_paid,new_car,1393,<100,1<=X<4,male_single,31,1,skilled,1,good
760,<0,critical/other_existing_credit,new_car,691,<100,>=7,male_single,35,2,skilled,1,bad
761,no_checking,critical/other_existing_credit,new_car,5045,no_savings,>=7,female_div/dep/mar,59,1,skilled,1,good
762,<0,critical/other_existing_credit,furniture/equipment,2124,<100,1<=X<4,female_div/dep/mar,24,2,skilled,1,bad
763,<0,existing_paid,radio/tv,2214,<100,1<=X<4,male_single,24,1,unskilled_resident,1,good
764,no_checking,critical/other_existing_credit,new_car,12680,no_savings,>=7,male_single,30,1,high_qualif/self_emp/mgmt,1,bad
765,no_checking,critical/other_existing_credit,new_car,2463,100<=X<500,4<=X<7,male_mar/wid,27,2,skilled,1,good
766,0<=X<200,existing_paid,radio/tv,1155,<100,>=7,male_mar/wid,40,2,unskilled_resident,1,good
767,<0,existing_paid,furniture/equipment,3108,<100,<1,male_div/sep,31,1,unskilled_resident,1,bad
768,no_checking,existing_paid,used_car,2901,no_savings,<1,female_div/dep/mar,31,1,skilled,1,good
769,0<=X<200,critical/other_existing_credit,furniture/equipment,3617,<100,>=7,male_single,28,3,skilled,1,good
770,no_checking,critical/other_existing_credit,radio/tv,1655,<100,>=7,male_single,63,2,unskilled_resident,1,good
771,<0,existing_paid,used_car,2812,no_savings,>=7,female_div/dep/mar,26,1,skilled,1,good
772,<0,critical/other_existing_credit,education,8065,<100,1<=X<4,female_div/dep/mar,25,2,high_qualif/self_emp/mgmt,1,bad
773,no_checking,critical/other_existing_credit,used_car,3275,<100,>=7,male_single,36,1,high_qualif/self_emp/mgmt,1,good
774,no_checking,critical/other_existing_credit,radio/tv,2223,100<=X<500,>=7,male_single,52,2,skilled,1,good
775,>=200,critical/other_existing_credit,new_car,1480,500<=X<1000,unemployed,male_single,66,3,unemp/unskilled_non_res,1,good
776,<0,existing_paid,new_car,1371,no_savings,1<=X<4,female_div/dep/mar,25,1,skilled,1,bad
777,no_checking,critical/other_existing_credit,new_car,3535,<100,4<=X<7,male_single,37,2,skilled,1,good
778,<0,existing_paid,radio/tv,3509,<100,4<=X<7,female_div/dep/mar,25,1,skilled,1,good
779,no_checking,critical/other_existing_credit,used_car,5711,>=1000,>=7,male_single,38,2,high_qualif/self_emp/mgmt,1,good
780,0<=X<200,existing_paid,repairs,3872,<100,unemployed,female_div/dep/mar,67,1,skilled,1,good
781,0<=X<200,critical/other_existing_credit,radio/tv,4933,<100,4<=X<7,male_single,25,2,skilled,1,bad
782,no_checking,critical/other_existing_credit,new_car,1940,>=1000,>=7,male_single,60,1,skilled,1,good
783,0<=X<200,no_credits/all_paid,retraining,1410,<100,1<=X<4,male_single,31,1,unskilled_resident,1,good
784,0<=X<200,existing_paid,new_car,836,100<=X<500,<1,female_div/dep/mar,23,1,unskilled_resident,1,bad
785,0<=X<200,existing_paid,used_car,6468,no_savings,unemployed,male_div/sep,60,1,high_qualif/self_emp/mgmt,1,good
786,0<=X<200,existing_paid,business,1941,>=1000,1<=X<4,male_single,35,1,unskilled_resident,1,good
787,no_checking,existing_paid,radio/tv,2675,500<=X<1000,>=7,male_single,40,1,skilled,1,good
788,no_checking,critical/other_existing_credit,used_car,2751,no_savings,>=7,male_single,38,2,skilled,2,good
789,0<=X<200,delayed_previously,education,6224,<100,>=7,male_single,50,1,skilled,1,bad
790,<0,critical/other_existing_credit,education,5998,<100,1<=X<4,male_single,27,1,skilled,1,bad
791,0<=X<200,existing_paid,business,1188,<100,>=7,female_div/dep/mar,39,1,skilled,2,bad
792,no_checking,existing_paid,used_car,6313,no_savings,>=7,male_single,41,1,high_qualif/self_emp/mgmt,2,good
793,no_checking,critical/other_existing_credit,furniture/equipment,1221,no_savings,1<=X<4,male_mar/wid,27,2,skilled,1,good
794,>=200,existing_paid,furniture/equipment,2892,<100,>=7,male_div/sep,51,1,skilled,1,good
795,no_checking,existing_paid,furniture/equipment,3062,500<=X<1000,>=7,male_single,32,1,skilled,1,good
796,no_checking,existing_paid,furniture/equipment,2301,100<=X<500,<1,female_div/dep/mar,22,1,skilled,1,good
797,<0,existing_paid,used_car,7511,no_savings,>=7,male_single,51,1,skilled,2,bad
798,no_checking,critical/other_existing_credit,furniture/equipment,1258,<100,<1,female_div/dep/mar,22,2,unskilled_resident,1,good
799,no_checking,delayed_previously,new_car,717,no_savings,>=7,male_mar/wid,54,2,skilled,1,good
800,0<=X<200,existing_paid,new_car,1549,no_savings,<1,male_single,35,1,unemp/unskilled_non_res,1,good
801,no_checking,critical/other_existing_credit,education,1597,<100,>=7,male_single,54,2,skilled,2,good
802,0<=X<200,critical/other_existing_credit,radio/tv,1795,<100,>=7,female_div/dep/mar,48,2,unskilled_resident,1,good
803,<0,critical/other_existing_credit,furniture/equipment,4272,<100,>=7,female_div/dep/mar,24,2,skilled,1,good
804,no_checking,critical/other_existing_credit,radio/tv,976,no_savings,>=7,male_single,35,2,skilled,1,good
805,0<=X<200,existing_paid,new_car,7472,no_savings,unemployed,female_div/dep/mar,24,1,unemp/unskilled_non_res,1,good
806,<0,existing_paid,new_car,9271,<100,4<=X<7,male_single,24,1,skilled,1,bad
807,0<=X<200,existing_paid,radio/tv,590,<100,<1,male_mar/wid,26,1,unskilled_resident,1,good
808,no_checking,critical/other_existing_credit,radio/tv,930,no_savings,>=7,male_single,65,4,skilled,1,good
809,0<=X<200,allpaid,used_car,9283,<100,unemployed,male_single,55,1,high_qualif/self_emp/mgmt,1,good
810,0<=X<200,no_credits/all_paid,new_car,1778,<100,<1,female_div/dep/mar,26,2,unemp/unskilled_non_res,1,bad
811,0<=X<200,existing_paid,business,907,<100,<1,male_mar/wid,26,1,skilled,1,good
812,0<=X<200,existing_paid,radio/tv,484,<100,4<=X<7,male_mar/wid,28,1,unskilled_resident,1,good
813,<0,critical/other_existing_credit,used_car,9629,<100,4<=X<7,male_single,24,2,skilled,1,bad
814,<0,existing_paid,domestic_appliance,3051,<100,1<=X<4,male_single,54,1,skilled,1,bad
815,<0,existing_paid,new_car,3931,<100,4<=X<7,male_single,46,1,skilled,2,bad
816,0<=X<200,delayed_previously,new_car,7432,<100,1<=X<4,female_div/dep/mar,54,1,skilled,1,good
817,no_checking,existing_paid,domestic_appliance,1338,500<=X<1000,1<=X<4,male_div/sep,62,1,skilled,1,good
818,no_checking,critical/other_existing_credit,radio/tv,1554,<100,4<=X<7,female_div/dep/mar,24,2,skilled,1,good
819,<0,existing_paid,other,15857,<100,unemployed,male_div/sep,43,1,high_qualif/self_emp/mgmt,1,good
820,<0,existing_paid,radio/tv,1345,<100,1<=X<4,male_mar/wid,26,1,skilled,1,bad
821,no_checking,existing_paid,new_car,1101,<100,1<=X<4,male_mar/wid,27,2,skilled,1,good
822,>=200,existing_paid,radio/tv,3016,<100,1<=X<4,male_mar/wid,24,1,skilled,1,good
823,<0,existing_paid,furniture/equipment,2712,<100,>=7,male_single,41,1,skilled,2,bad
824,<0,critical/other_existing_credit,new_car,731,<100,>=7,male_single,47,2,unskilled_resident,1,good
825,no_checking,critical/other_existing_credit,furniture/equipment,3780,<100,<1,male_div/sep,35,2,high_qualif/self_emp/mgmt,1,good
826,<0,critical/other_existing_credit,new_car,1602,<100,>=7,male_mar/wid,30,2,skilled,1,good
827,<0,critical/other_existing_credit,new_car,3966,<100,>=7,female_div/dep/mar,33,3,skilled,1,bad
828,no_checking,no_credits/all_paid,business,4165,<100,1<=X<4,male_single,36,2,skilled,2,bad
829,<0,existing_paid,used_car,8335,no_savings,>=7,male_single,47,1,skilled,1,bad
830,0<=X<200,delayed_previously,business,6681,no_savings,1<=X<4,male_single,38,1,skilled,2,good
831,no_checking,delayed_previously,business,2375,500<=X<1000,1<=X<4,male_single,44,2,skilled,2,good
832,<0,existing_paid,new_car,1216,<100,<1,female_div/dep/mar,23,1,skilled,1,bad
833,<0,no_credits/all_paid,business,11816,<100,>=7,male_single,29,2,skilled,1,bad
834,0<=X<200,existing_paid,radio/tv,5084,no_savings,>=7,female_div/dep/mar,42,1,skilled,1,good
835,>=200,existing_paid,radio/tv,2327,<100,<1,female_div/dep/mar,25,1,unskilled_resident,1,bad
836,<0,no_credits/all_paid,new_car,1082,<100,1<=X<4,male_single,48,2,skilled,1,bad
837,no_checking,existing_paid,radio/tv,886,no_savings,1<=X<4,female_div/dep/mar,21,1,skilled,1,good
838,no_checking,existing_paid,furniture/equipment,601,<100,<1,female_div/dep/mar,23,1,unskilled_resident,2,good
839,<0,critical/other_existing_credit,used_car,2957,<100,>=7,male_single,63,2,skilled,1,good
840,no_checking,critical/other_existing_credit,radio/tv,2611,<100,>=7,male_mar/wid,46,2,skilled,1,good
841,<0,existing_paid,furniture/equipment,5179,<100,4<=X<7,male_single,29,1,skilled,1,bad
842,no_checking,delayed_previously,used_car,2993,<100,1<=X<4,male_single,28,2,unskilled_resident,1,good
843,no_checking,existing_paid,repairs,1943,<100,<1,female_div/dep/mar,23,1,skilled,1,bad
844,no_checking,allpaid,business,1559,<100,4<=X<7,male_single,50,1,skilled,1,good
845,no_checking,existing_paid,furniture/equipment,3422,<100,>=7,male_single,47,3,skilled,2,good
846,0<=X<200,existing_paid,furniture/equipment,3976,no_savings,4<=X<7,male_single,35,1,skilled,1,good
847,no_checking,existing_paid,new_car,6761,no_savings,1<=X<4,male_single,68,2,skilled,1,bad
848,no_checking,existing_paid,new_car,1249,<100,<1,male_mar/wid,28,1,skilled,1,good
849,<0,existing_paid,radio/tv,1364,<100,4<=X<7,male_single,59,1,skilled,1,good
850,<0,existing_paid,radio/tv,709,<100,>=7,male_single,57,1,unskilled_resident,1,bad
851,<0,critical/other_existing_credit,new_car,2235,<100,1<=X<4,male_mar/wid,33,2,skilled,1,bad
852,no_checking,critical/other_existing_credit,used_car,4042,no_savings,4<=X<7,male_single,43,2,skilled,1,good
853,no_checking,critical/other_existing_credit,radio/tv,1471,<100,1<=X<4,male_single,35,2,skilled,1,good
854,<0,allpaid,new_car,1442,<100,4<=X<7,male_single,32,2,unskilled_resident,2,bad
855,no_checking,delayed_previously,new_car,10875,<100,>=7,male_single,45,2,skilled,2,good
856,no_checking,existing_paid,new_car,1474,100<=X<500,<1,male_mar/wid,33,1,skilled,1,good
857,no_checking,existing_paid,retraining,894,no_savings,4<=X<7,female_div/dep/mar,40,1,skilled,1,good
858,no_checking,critical/other_existing_credit,furniture/equipment,3343,<100,1<=X<4,male_single,28,1,skilled,1,good
859,<0,existing_paid,new_car,3959,<100,1<=X<4,female_div/dep/mar,29,1,skilled,1,bad
860,no_checking,existing_paid,new_car,3577,100<=X<500,1<=X<4,male_single,26,1,skilled,2,good
861,no_checking,critical/other_existing_credit,used_car,5804,>=1000,1<=X<4,male_single,27,2,skilled,1,good
862,no_checking,delayed_previously,business,2169,<100,1<=X<4,male_mar/wid,28,1,skilled,1,bad
863,<0,existing_paid,radio/tv,2439,<100,<1,female_div/dep/mar,35,1,skilled,1,bad
864,no_checking,critical/other_existing_credit,furniture/equipment,4526,>=1000,<1,male_single,32,2,unskilled_resident,2,good
865,no_checking,existing_paid,furniture/equipment,2210,<100,1<=X<4,male_single,25,1,unskilled_resident,1,bad
866,no_checking,existing_paid,furniture/equipment,2221,500<=X<1000,1<=X<4,female_div/dep/mar,20,1,skilled,1,good
867,<0,existing_paid,radio/tv,2389,<100,<1,female_div/dep/mar,27,1,skilled,1,good
868,no_checking,critical/other_existing_credit,furniture/equipment,3331,<100,>=7,male_single,42,1,skilled,1,good
869,no_checking,existing_paid,business,7409,no_savings,>=7,male_single,37,2,skilled,1,good
870,<0,existing_paid,furniture/equipment,652,<100,>=7,female_div/dep/mar,24,1,skilled,1,good
871,no_checking,delayed_previously,furniture/equipment,7678,500<=X<1000,4<=X<7,female_div/dep/mar,40,2,skilled,1,good
872,>=200,critical/other_existing_credit,new_car,1343,<100,>=7,male_single,46,2,skilled,2,good
873,<0,critical/other_existing_credit,business,1382,100<=X<500,4<=X<7,male_single,26,2,skilled,1,good
874,no_checking,existing_paid,domestic_appliance,874,no_savings,<1,female_div/dep/mar,24,1,skilled,1,good
875,<0,existing_paid,furniture/equipment,3590,<100,1<=X<4,male_single,29,1,unskilled_resident,2,good
876,0<=X<200,critical/other_existing_credit,new_car,1322,>=1000,1<=X<4,female_div/dep/mar,40,2,skilled,1,good
877,<0,allpaid,radio/tv,1940,<100,<1,male_single,36,1,high_qualif/self_emp/mgmt,1,good
878,no_checking,existing_paid,radio/tv,3595,<100,>=7,male_single,28,1,skilled,1,good
879,<0,existing_paid,new_car,1422,<100,<1,male_single,27,1,high_qualif/self_emp/mgmt,1,bad
880,no_checking,critical/other_existing_credit,radio/tv,6742,no_savings,4<=X<7,male_single,36,2,skilled,1,good
881,no_checking,existing_paid,used_car,7814,<100,4<=X<7,male_single,38,1,high_qualif/self_emp/mgmt,1,good
882,no_checking,existing_paid,used_car,9277,no_savings,1<=X<4,male_div/sep,48,1,skilled,1,good
883,0<=X<200,critical/other_existing_credit,new_car,2181,no_savings,>=7,male_single,36,2,skilled,1,good
884,no_checking,critical/other_existing_credit,radio/tv,1098,<100,unemployed,female_div/dep/mar,65,2,unemp/unskilled_non_res,1,good
885,0<=X<200,existing_paid,furniture/equipment,4057,<100,4<=X<7,male_div/sep,43,1,skilled,1,bad
886,<0,existing_paid,education,795,<100,<1,female_div/dep/mar,53,1,skilled,1,bad
887,0<=X<200,critical/other_existing_credit,business,2825,no_savings,4<=X<7,male_single,34,2,skilled,2,good
888,0<=X<200,existing_paid,business,15672,<100,1<=X<4,male_single,23,1,skilled,1,bad
889,no_checking,critical/other_existing_credit,new_car,6614,<100,>=7,male_single,34,2,high_qualif/self_emp/mgmt,1,good
890,no_checking,allpaid,used_car,7824,no_savings,<1,male_single,40,2,skilled,2,good
891,<0,critical/other_existing_credit,business,2442,<100,>=7,male_single,43,4,high_qualif/self_emp/mgmt,2,good
892,no_checking,critical/other_existing_credit,radio/tv,1829,<100,>=7,male_single,46,2,skilled,1,good
893,<0,critical/other_existing_credit,new_car,2171,<100,1<=X<4,male_single,38,2,unskilled_resident,1,good
894,0<=X<200,critical/other_existing_credit,used_car,5800,<100,1<=X<4,male_single,34,2,skilled,1,good
895,no_checking,critical/other_existing_credit,radio/tv,1169,no_savings,1<=X<4,male_single,29,2,skilled,1,good
896,no_checking,delayed_previously,used_car,8947,no_savings,4<=X<7,male_single,31,1,high_qualif/self_emp/mgmt,2,good
897,<0,existing_paid,radio/tv,2606,<100,<1,female_div/dep/mar,28,1,high_qualif/self_emp/mgmt,1,good
898,no_checking,critical/other_existing_credit,furniture/equipment,1592,>=1000,4<=X<7,female_div/dep/mar,35,1,skilled,1,good
899,no_checking,existing_paid,furniture/equipment,2186,no_savings,4<=X<7,female_div/dep/mar,33,1,unskilled_resident,1,good
900,<0,existing_paid,furniture/equipment,4153,<100,1<=X<4,male_single,42,1,skilled,1,bad
901,<0,critical/other_existing_credit,new_car,2625,<100,>=7,male_single,43,1,skilled,1,bad
902,no_checking,critical/other_existing_credit,new_car,3485,no_savings,<1,male_div/sep,44,2,skilled,1,good
903,no_checking,critical/other_existing_credit,used_car,10477,no_savings,>=7,male_single,42,2,skilled,1,good
904,no_checking,existing_paid,radio/tv,1386,no_savings,1<=X<4,male_mar/wid,40,1,skilled,1,good
905,no_checking,existing_paid,radio/tv,1278,<100,>=7,male_single,36,1,high_qualif/self_emp/mgmt,1,good
906,<0,existing_paid,radio/tv,1107,<100,1<=X<4,male_single,20,1,high_qualif/self_emp/mgmt,2,good
907,<0,existing_paid,new_car,3763,no_savings,4<=X<7,male_single,24,1,unskilled_resident,1,good
908,0<=X<200,existing_paid,education,3711,no_savings,1<=X<4,male_mar/wid,27,1,skilled,1,good
909,no_checking,delayed_previously,used_car,3594,<100,<1,female_div/dep/mar,46,2,unskilled_resident,1,good
910,0<=X<200,existing_paid,new_car,3195,no_savings,1<=X<4,female_div/dep/mar,33,1,unskilled_resident,1,good
911,no_checking,delayed_previously,radio/tv,4454,<100,1<=X<4,female_div/dep/mar,34,2,skilled,1,good
912,0<=X<200,critical/other_existing_credit,furniture/equipment,4736,<100,<1,female_div/dep/mar,25,1,unskilled_resident,1,bad
913,0<=X<200,existing_paid,radio/tv,2991,no_savings,>=7,female_div/dep/mar,25,1,skilled,1,good
914,no_checking,existing_paid,business,2142,>=1000,>=7,male_div/sep,28,1,skilled,1,good
915,<0,allpaid,business,3161,<100,1<=X<4,male_single,31,1,skilled,1,bad
916,0<=X<200,no_credits/all_paid,other,18424,<100,1<=X<4,female_div/dep/mar,32,1,high_qualif/self_emp/mgmt,1,bad
917,no_checking,existing_paid,used_car,2848,100<=X<500,1<=X<4,male_single,32,1,skilled,2,good
918,<0,existing_paid,new_car,14896,<100,>=7,male_single,68,1,high_qualif/self_emp/mgmt,1,bad
919,<0,existing_paid,furniture/equipment,2359,100<=X<500,unemployed,male_div/sep,33,1,skilled,1,bad
920,<0,existing_paid,furniture/equipment,3345,<100,>=7,male_single,39,1,high_qualif/self_emp/mgmt,1,bad
921,no_checking,critical/other_existing_credit,furniture/equipment,1817,<100,1<=X<4,female_div/dep/mar,28,2,skilled,1,good
922,no_checking,delayed_previously,radio/tv,12749,500<=X<1000,4<=X<7,male_single,37,1,high_qualif/self_emp/mgmt,1,good
923,<0,existing_paid,radio/tv,1366,<100,<1,female_div/dep/mar,22,1,skilled,1,bad
924,0<=X<200,existing_paid,new_car,2002,<100,4<=X<7,male_single,30,1,skilled,2,good
925,<0,allpaid,furniture/equipment,6872,<100,<1,male_div/sep,55,1,skilled,1,bad
926,<0,allpaid,new_car,697,<100,<1,male_single,46,2,skilled,1,bad
927,<0,critical/other_existing_credit,furniture/equipment,1049,<100,<1,female_div/dep/mar,21,1,skilled,1,good
928,<0,existing_paid,used_car,10297,<100,4<=X<7,male_single,39,3,skilled,2,bad
929,no_checking,existing_paid,radio/tv,1867,no_savings,>=7,male_single,58,1,skilled,1,good
930,<0,delayed_previously,new_car,1344,<100,1<=X<4,male_single,43,2,unskilled_resident,2,good
931,<0,existing_paid,furniture/equipment,1747,<100,<1,male_single,24,1,unskilled_resident,1,good
932,0<=X<200,existing_paid,radio/tv,1670,<100,<1,female_div/dep/mar,22,1,skilled,1,bad
933,no_checking,critical/other_existing_credit,new_car,1224,<100,1<=X<4,male_single,30,2,skilled,1,good
934,no_checking,critical/other_existing_credit,radio/tv,522,500<=X<1000,>=7,male_single,42,2,skilled,2,good
935,<0,existing_paid,radio/tv,1498,<100,1<=X<4,female_div/dep/mar,23,1,skilled,1,good
936,0<=X<200,delayed_previously,radio/tv,1919,100<=X<500,<1,male_single,30,2,high_qualif/self_emp/mgmt,1,bad
937,>=200,existing_paid,radio/tv,745,<100,1<=X<4,female_div/dep/mar,28,1,unskilled_resident,1,bad
938,0<=X<200,existing_paid,radio/tv,2063,<100,<1,male_mar/wid,30,1,high_qualif/self_emp/mgmt,1,good
939,0<=X<200,existing_paid,education,6288,<100,1<=X<4,male_single,42,1,skilled,1,bad
940,no_checking,critical/other_existing_credit,used_car,6842,no_savings,1<=X<4,male_single,46,2,high_qualif/self_emp/mgmt,2,good
941,no_checking,existing_paid,new_car,3527,no_savings,<1,male_single,45,1,high_qualif/self_emp/mgmt,2,good
942,no_checking,existing_paid,new_car,1546,<100,1<=X<4,male_single,31,1,unskilled_resident,2,good
943,no_checking,existing_paid,furniture/equipment,929,no_savings,4<=X<7,male_single,31,1,skilled,1,good
944,no_checking,critical/other_existing_credit,new_car,1455,<100,4<=X<7,male_single,42,3,unskilled_resident,2,good
945,<0,existing_paid,furniture/equipment,1845,<100,<1,female_div/dep/mar,46,1,skilled,1,good
946,0<=X<200,no_credits/all_paid,new_car,8358,500<=X<1000,<1,female_div/dep/mar,30,2,skilled,1,good
947,<0,allpaid,furniture/equipment,3349,500<=X<1000,<1,male_single,30,1,skilled,2,bad
948,no_checking,existing_paid,new_car,2859,no_savings,unemployed,male_single,38,1,high_qualif/self_emp/mgmt,1,good
949,no_checking,existing_paid,furniture/equipment,1533,<100,<1,male_mar/wid,43,1,unskilled_resident,2,bad
950,no_checking,existing_paid,radio/tv,3621,100<=X<500,>=7,male_single,31,2,skilled,1,bad
951,0<=X<200,critical/other_existing_credit,business,3590,<100,unemployed,male_mar/wid,40,3,unemp/unskilled_non_res,2,good
952,<0,delayed_previously,business,2145,<100,4<=X<7,male_single,24,2,skilled,1,bad
953,0<=X<200,existing_paid,used_car,4113,500<=X<1000,<1,female_div/dep/mar,28,1,skilled,1,bad
954,no_checking,existing_paid,furniture/equipment,10974,<100,unemployed,female_div/dep/mar,26,2,high_qualif/self_emp/mgmt,1,bad
955,<0,existing_paid,new_car,1893,<100,1<=X<4,female_div/dep/mar,29,1,skilled,1,good
956,<0,critical/other_existing_credit,radio/tv,1231,>=1000,>=7,female_div/dep/mar,57,2,high_qualif/self_emp/mgmt,1,good
957,>=200,critical/other_existing_credit,radio/tv,3656,no_savings,>=7,male_single,49,2,unskilled_resident,1,good
958,0<=X<200,critical/other_existing_credit,radio/tv,1154,<100,>=7,male_single,37,3,unskilled_resident,1,good
959,<0,existing_paid,new_car,4006,<100,1<=X<4,male_single,45,1,unskilled_resident,1,bad
960,0<=X<200,existing_paid,furniture/equipment,3069,100<=X<500,>=7,male_single,30,1,skilled,1,good
961,no_checking,critical/other_existing_credit,radio/tv,1740,<100,>=7,male_mar/wid,30,2,skilled,1,good
962,0<=X<200,delayed_previously,new_car,2353,<100,1<=X<4,male_div/sep,47,2,skilled,1,good
963,no_checking,existing_paid,new_car,3556,no_savings,1<=X<4,male_single,29,1,skilled,1,good
964,no_checking,existing_paid,radio/tv,2397,500<=X<1000,>=7,male_single,35,2,skilled,1,bad
965,0<=X<200,existing_paid,repairs,454,<100,<1,male_mar/wid,22,1,unskilled_resident,1,good
966,0<=X<200,existing_paid,radio/tv,1715,no_savings,1<=X<4,female_div/dep/mar,26,1,skilled,1,good
967,0<=X<200,critical/other_existing_credit,radio/tv,2520,500<=X<1000,1<=X<4,male_single,23,2,unskilled_resident,1,bad
968,no_checking,existing_paid,radio/tv,3568,<100,>=7,female_div/dep/mar,54,1,high_qualif/self_emp/mgmt,1,good
969,no_checking,existing_paid,radio/tv,7166,no_savings,4<=X<7,male_mar/wid,29,1,skilled,1,good
970,<0,critical/other_existing_credit,new_car,3939,<100,1<=X<4,male_single,40,2,unskilled_resident,2,good
971,0<=X<200,existing_paid,repairs,1514,100<=X<500,1<=X<4,male_single,22,1,skilled,1,good
972,no_checking,existing_paid,new_car,7393,<100,1<=X<4,male_single,43,1,unskilled_resident,2,good
973,<0,allpaid,new_car,1193,<100,unemployed,female_div/dep/mar,29,2,unemp/unskilled_non_res,1,bad
974,<0,existing_paid,business,7297,<100,>=7,male_single,36,1,skilled,1,bad
975,no_checking,critical/other_existing_credit,radio/tv,2831,<100,1<=X<4,female_div/dep/mar,33,1,skilled,1,good
976,>=200,existing_paid,radio/tv,1258,500<=X<1000,1<=X<4,female_div/dep/mar,57,1,unskilled_resident,1,good
977,0<=X<200,existing_paid,radio/tv,753,<100,1<=X<4,female_div/dep/mar,64,1,skilled,1,good
978,0<=X<200,delayed_previously,business,2427,no_savings,>=7,male_single,42,2,skilled,1,good
979,no_checking,delayed_previously,new_car,2538,<100,>=7,male_single,47,2,unskilled_resident,2,bad
980,0<=X<200,allpaid,new_car,1264,100<=X<500,1<=X<4,male_mar/wid,25,1,skilled,1,bad
981,0<=X<200,critical/other_existing_credit,furniture/equipment,8386,<100,4<=X<7,male_single,49,1,skilled,1,bad
982,no_checking,existing_paid,business,4844,<100,unemployed,male_single,33,1,high_qualif/self_emp/mgmt,1,bad
983,>=200,existing_paid,new_car,2923,100<=X<500,1<=X<4,female_div/dep/mar,28,1,high_qualif/self_emp/mgmt,1,good
984,<0,existing_paid,used_car,8229,<100,1<=X<4,male_single,26,1,skilled,2,bad
985,no_checking,critical/other_existing_credit,furniture/equipment,2028,<100,4<=X<7,male_single,30,2,unskilled_resident,1,good
986,<0,critical/other_existing_credit,furniture/equipment,1433,<100,1<=X<4,female_div/dep/mar,25,2,skilled,1,good
987,>=200,no_credits/all_paid,business,6289,<100,<1,male_div/sep,33,2,skilled,1,good
988,no_checking,existing_paid,radio/tv,1409,100<=X<500,unemployed,female_div/dep/mar,64,1,skilled,1,good
989,<0,existing_paid,used_car,6579,<100,unemployed,male_single,29,1,high_qualif/self_emp/mgmt,1,good
990,0<=X<200,critical/other_existing_credit,radio/tv,1743,<100,>=7,male_single,48,2,unskilled_resident,1,good
991,no_checking,critical/other_existing_credit,education,3565,no_savings,<1,male_single,37,2,unskilled_resident,2,good
992,no_checking,allpaid,radio/tv,1569,100<=X<500,>=7,male_single,34,1,unskilled_resident,2,good
993,<0,existing_paid,radio/tv,1936,no_savings,4<=X<7,male_mar/wid,23,2,unskilled_resident,1,good
994,<0,existing_paid,furniture/equipment,3959,<100,unemployed,male_single,30,1,high_qualif/self_emp/mgmt,1,good
995,no_checking,existing_paid,new_car,2390,no_savings,>=7,male_single,50,1,skilled,1,good
996,no_checking,existing_paid,furniture/equipment,1736,<100,4<=X<7,female_div/dep/mar,31,1,unskilled_resident,1,good
997,<0,existing_paid,used_car,3857,<100,1<=X<4,male_div/sep,40,1,high_qualif/self_emp/mgmt,1,good
998,no_checking,existing_paid,radio/tv,804,<100,>=7,male_single,38,1,skilled,1,good
999,<0,existing_paid,radio/tv,1845,<100,1<=X<4,male_single,23,1,skilled,1,bad
1000,0<=X<200,critical/other_existing_credit,used_car,4576,100<=X<500,unemployed,male_single,27,1,skilled,1,good